"LightmappedGeneric"
{
	"$basetexture" "Concrete/concretewall010b"
	"$surfaceprop" "concrete"
	
        "$detail" "detail\noise_detail_01"
	"$detailscale" "7.345"
	"$detailblendfactor" .6
	"$detailblendmode" 0
	"%keywords" "c17industrial,c17sewers"
}
