"LightmappedGeneric"
{
	"$basetexture" "concrete\concretefloor020a"
	"$surfaceprop" "concrete"
	
        "$detail" "detail\noise_detail_01"
	"$detailscale" "7.345"
	"$detailblendfactor" .6
	"$detailblendmode" 0
	"%keywords" "c17downtown"
	"$bumpmap" "concrete\concretefloor020a_normal"
	"$parallaxmap" "concrete\concretefloor020a_height"
	"$parallaxmapscale" ".025"
}
