^C:\PROGRAM FILES (X86)\STEAM\STEAMAPPS\SOURCEMODS\HL2_BOSNIAN_TRANSLATION\SRC\TIER1\BITBUF.CPP
/c /I..\common /I..\public /I..\public\tier0 /I..\public\tier1 /ZI /nologo /W4 /WX /Od /Oy- /D VPC /D RAD_TELEMETRY_DISABLED /D _HAS_ITERATOR_DEBUGGING=0 /D WIN32 /D _WIN32 /D _DEBUG /D DEBUG /D _LIB /D _CRT_SECURE_NO_DEPRECATE /D _CRT_NONSTDC_NO_DEPRECATE /D _ALLOW_RUNTIME_LIBRARY_MISMATCH /D _ALLOW_ITERATOR_DEBUG_LEVEL_MISMATCH /D _ALLOW_MSC_VER_MISMATCH /D _USING_V110_SDK71_ /D _MBCS /D COMPILER_MSVC32 /D COMPILER_MSVC32 /D COMPILER_MSVC /D _DLL_EXT=.dll /D LIBNAME=tier1 /D BINK_VIDEO /D AVI_VIDEO /D WMV_VIDEO /D DEV_BUILD /D FRAME_POINTER_OMISSION_DISABLED /D TIER1_STATIC_LIB /D _EXTERNAL_DLL_EXT=.dll /D VPCGAMECAPS=VALVE /D "PROJECTDIR=C:\Program Files (x86)\Steam\steamapps\sourcemods\hl2_bosnian_translation\src\tier1" /D _DLL_EXT=.dll /D VPCGAME=valve /D SOURCE1=1 /GF /Gm- /MTd /GS /arch:SSE /fp:fast /Zc:wchar_t /Zc:forScope /GR /openmp- /Fo".\DEBUG\.\/" /Fd".\DEBUG\.\/VC120.PDB" /Gd /TP /wd4316 /analyze- /FC  /Gw C:\PROGRAM FILES (X86)\STEAM\STEAMAPPS\SOURCEMODS\HL2_BOSNIAN_TRANSLATION\SRC\TIER1\BITBUF.CPP
^C:\PROGRAM FILES (X86)\STEAM\STEAMAPPS\SOURCEMODS\HL2_BOSNIAN_TRANSLATION\SRC\TIER1\BYTESWAP.CPP
/c /I..\common /I..\public /I..\public\tier0 /I..\public\tier1 /ZI /nologo /W4 /WX /Od /Oy- /D VPC /D RAD_TELEMETRY_DISABLED /D _HAS_ITERATOR_DEBUGGING=0 /D WIN32 /D _WIN32 /D _DEBUG /D DEBUG /D _LIB /D _CRT_SECURE_NO_DEPRECATE /D _CRT_NONSTDC_NO_DEPRECATE /D _ALLOW_RUNTIME_LIBRARY_MISMATCH /D _ALLOW_ITERATOR_DEBUG_LEVEL_MISMATCH /D _ALLOW_MSC_VER_MISMATCH /D _USING_V110_SDK71_ /D _MBCS /D COMPILER_MSVC32 /D COMPILER_MSVC32 /D COMPILER_MSVC /D _DLL_EXT=.dll /D LIBNAME=tier1 /D BINK_VIDEO /D AVI_VIDEO /D WMV_VIDEO /D DEV_BUILD /D FRAME_POINTER_OMISSION_DISABLED /D TIER1_STATIC_LIB /D _EXTERNAL_DLL_EXT=.dll /D VPCGAMECAPS=VALVE /D "PROJECTDIR=C:\Program Files (x86)\Steam\steamapps\sourcemods\hl2_bosnian_translation\src\tier1" /D _DLL_EXT=.dll /D VPCGAME=valve /D SOURCE1=1 /GF /Gm- /MTd /GS /arch:SSE /fp:fast /Zc:wchar_t /Zc:forScope /GR /openmp- /Fo".\DEBUG\.\/" /Fd".\DEBUG\.\/VC120.PDB" /Gd /TP /wd4316 /analyze- /FC  /Gw C:\PROGRAM FILES (X86)\STEAM\STEAMAPPS\SOURCEMODS\HL2_BOSNIAN_TRANSLATION\SRC\TIER1\BYTESWAP.CPP
^C:\PROGRAM FILES (X86)\STEAM\STEAMAPPS\SOURCEMODS\HL2_BOSNIAN_TRANSLATION\SRC\TIER1\CHARACTERSET.CPP
/c /I..\common /I..\public /I..\public\tier0 /I..\public\tier1 /ZI /nologo /W4 /WX /Od /Oy- /D VPC /D RAD_TELEMETRY_DISABLED /D _HAS_ITERATOR_DEBUGGING=0 /D WIN32 /D _WIN32 /D _DEBUG /D DEBUG /D _LIB /D _CRT_SECURE_NO_DEPRECATE /D _CRT_NONSTDC_NO_DEPRECATE /D _ALLOW_RUNTIME_LIBRARY_MISMATCH /D _ALLOW_ITERATOR_DEBUG_LEVEL_MISMATCH /D _ALLOW_MSC_VER_MISMATCH /D _USING_V110_SDK71_ /D _MBCS /D COMPILER_MSVC32 /D COMPILER_MSVC32 /D COMPILER_MSVC /D _DLL_EXT=.dll /D LIBNAME=tier1 /D BINK_VIDEO /D AVI_VIDEO /D WMV_VIDEO /D DEV_BUILD /D FRAME_POINTER_OMISSION_DISABLED /D TIER1_STATIC_LIB /D _EXTERNAL_DLL_EXT=.dll /D VPCGAMECAPS=VALVE /D "PROJECTDIR=C:\Program Files (x86)\Steam\steamapps\sourcemods\hl2_bosnian_translation\src\tier1" /D _DLL_EXT=.dll /D VPCGAME=valve /D SOURCE1=1 /GF /Gm- /MTd /GS /arch:SSE /fp:fast /Zc:wchar_t /Zc:forScope /GR /openmp- /Fo".\DEBUG\.\/" /Fd".\DEBUG\.\/VC120.PDB" /Gd /TP /wd4316 /analyze- /FC  /Gw C:\PROGRAM FILES (X86)\STEAM\STEAMAPPS\SOURCEMODS\HL2_BOSNIAN_TRANSLATION\SRC\TIER1\CHARACTERSET.CPP
^C:\PROGRAM FILES (X86)\STEAM\STEAMAPPS\SOURCEMODS\HL2_BOSNIAN_TRANSLATION\SRC\TIER1\CHECKSUM_CRC.CPP
/c /I..\common /I..\public /I..\public\tier0 /I..\public\tier1 /ZI /nologo /W4 /WX /Od /Oy- /D VPC /D RAD_TELEMETRY_DISABLED /D _HAS_ITERATOR_DEBUGGING=0 /D WIN32 /D _WIN32 /D _DEBUG /D DEBUG /D _LIB /D _CRT_SECURE_NO_DEPRECATE /D _CRT_NONSTDC_NO_DEPRECATE /D _ALLOW_RUNTIME_LIBRARY_MISMATCH /D _ALLOW_ITERATOR_DEBUG_LEVEL_MISMATCH /D _ALLOW_MSC_VER_MISMATCH /D _USING_V110_SDK71_ /D _MBCS /D COMPILER_MSVC32 /D COMPILER_MSVC32 /D COMPILER_MSVC /D _DLL_EXT=.dll /D LIBNAME=tier1 /D BINK_VIDEO /D AVI_VIDEO /D WMV_VIDEO /D DEV_BUILD /D FRAME_POINTER_OMISSION_DISABLED /D TIER1_STATIC_LIB /D _EXTERNAL_DLL_EXT=.dll /D VPCGAMECAPS=VALVE /D "PROJECTDIR=C:\Program Files (x86)\Steam\steamapps\sourcemods\hl2_bosnian_translation\src\tier1" /D _DLL_EXT=.dll /D VPCGAME=valve /D SOURCE1=1 /GF /Gm- /MTd /GS /arch:SSE /fp:fast /Zc:wchar_t /Zc:forScope /GR /openmp- /Fo".\DEBUG\.\/" /Fd".\DEBUG\.\/VC120.PDB" /Gd /TP /wd4316 /analyze- /FC  /Gw C:\PROGRAM FILES (X86)\STEAM\STEAMAPPS\SOURCEMODS\HL2_BOSNIAN_TRANSLATION\SRC\TIER1\CHECKSUM_CRC.CPP
^C:\PROGRAM FILES (X86)\STEAM\STEAMAPPS\SOURCEMODS\HL2_BOSNIAN_TRANSLATION\SRC\TIER1\CHECKSUM_MD5.CPP
/c /I..\common /I..\public /I..\public\tier0 /I..\public\tier1 /ZI /nologo /W4 /WX /Od /Oy- /D VPC /D RAD_TELEMETRY_DISABLED /D _HAS_ITERATOR_DEBUGGING=0 /D WIN32 /D _WIN32 /D _DEBUG /D DEBUG /D _LIB /D _CRT_SECURE_NO_DEPRECATE /D _CRT_NONSTDC_NO_DEPRECATE /D _ALLOW_RUNTIME_LIBRARY_MISMATCH /D _ALLOW_ITERATOR_DEBUG_LEVEL_MISMATCH /D _ALLOW_MSC_VER_MISMATCH /D _USING_V110_SDK71_ /D _MBCS /D COMPILER_MSVC32 /D COMPILER_MSVC32 /D COMPILER_MSVC /D _DLL_EXT=.dll /D LIBNAME=tier1 /D BINK_VIDEO /D AVI_VIDEO /D WMV_VIDEO /D DEV_BUILD /D FRAME_POINTER_OMISSION_DISABLED /D TIER1_STATIC_LIB /D _EXTERNAL_DLL_EXT=.dll /D VPCGAMECAPS=VALVE /D "PROJECTDIR=C:\Program Files (x86)\Steam\steamapps\sourcemods\hl2_bosnian_translation\src\tier1" /D _DLL_EXT=.dll /D VPCGAME=valve /D SOURCE1=1 /GF /Gm- /MTd /GS /arch:SSE /fp:fast /Zc:wchar_t /Zc:forScope /GR /openmp- /Fo".\DEBUG\.\/" /Fd".\DEBUG\.\/VC120.PDB" /Gd /TP /wd4316 /analyze- /FC  /Gw C:\PROGRAM FILES (X86)\STEAM\STEAMAPPS\SOURCEMODS\HL2_BOSNIAN_TRANSLATION\SRC\TIER1\CHECKSUM_MD5.CPP
^C:\PROGRAM FILES (X86)\STEAM\STEAMAPPS\SOURCEMODS\HL2_BOSNIAN_TRANSLATION\SRC\TIER1\CHECKSUM_SHA1.CPP
/c /I..\common /I..\public /I..\public\tier0 /I..\public\tier1 /ZI /nologo /W4 /WX /Od /Oy- /D VPC /D RAD_TELEMETRY_DISABLED /D _HAS_ITERATOR_DEBUGGING=0 /D WIN32 /D _WIN32 /D _DEBUG /D DEBUG /D _LIB /D _CRT_SECURE_NO_DEPRECATE /D _CRT_NONSTDC_NO_DEPRECATE /D _ALLOW_RUNTIME_LIBRARY_MISMATCH /D _ALLOW_ITERATOR_DEBUG_LEVEL_MISMATCH /D _ALLOW_MSC_VER_MISMATCH /D _USING_V110_SDK71_ /D _MBCS /D COMPILER_MSVC32 /D COMPILER_MSVC32 /D COMPILER_MSVC /D _DLL_EXT=.dll /D LIBNAME=tier1 /D BINK_VIDEO /D AVI_VIDEO /D WMV_VIDEO /D DEV_BUILD /D FRAME_POINTER_OMISSION_DISABLED /D TIER1_STATIC_LIB /D _EXTERNAL_DLL_EXT=.dll /D VPCGAMECAPS=VALVE /D "PROJECTDIR=C:\Program Files (x86)\Steam\steamapps\sourcemods\hl2_bosnian_translation\src\tier1" /D _DLL_EXT=.dll /D VPCGAME=valve /D SOURCE1=1 /GF /Gm- /MTd /GS /arch:SSE /fp:fast /Zc:wchar_t /Zc:forScope /GR /openmp- /Fo".\DEBUG\.\/" /Fd".\DEBUG\.\/VC120.PDB" /Gd /TP /wd4316 /analyze- /FC  /Gw C:\PROGRAM FILES (X86)\STEAM\STEAMAPPS\SOURCEMODS\HL2_BOSNIAN_TRANSLATION\SRC\TIER1\CHECKSUM_SHA1.CPP
^C:\PROGRAM FILES (X86)\STEAM\STEAMAPPS\SOURCEMODS\HL2_BOSNIAN_TRANSLATION\SRC\TIER1\COMMANDBUFFER.CPP
/c /I..\common /I..\public /I..\public\tier0 /I..\public\tier1 /ZI /nologo /W4 /WX /Od /Oy- /D VPC /D RAD_TELEMETRY_DISABLED /D _HAS_ITERATOR_DEBUGGING=0 /D WIN32 /D _WIN32 /D _DEBUG /D DEBUG /D _LIB /D _CRT_SECURE_NO_DEPRECATE /D _CRT_NONSTDC_NO_DEPRECATE /D _ALLOW_RUNTIME_LIBRARY_MISMATCH /D _ALLOW_ITERATOR_DEBUG_LEVEL_MISMATCH /D _ALLOW_MSC_VER_MISMATCH /D _USING_V110_SDK71_ /D _MBCS /D COMPILER_MSVC32 /D COMPILER_MSVC32 /D COMPILER_MSVC /D _DLL_EXT=.dll /D LIBNAME=tier1 /D BINK_VIDEO /D AVI_VIDEO /D WMV_VIDEO /D DEV_BUILD /D FRAME_POINTER_OMISSION_DISABLED /D TIER1_STATIC_LIB /D _EXTERNAL_DLL_EXT=.dll /D VPCGAMECAPS=VALVE /D "PROJECTDIR=C:\Program Files (x86)\Steam\steamapps\sourcemods\hl2_bosnian_translation\src\tier1" /D _DLL_EXT=.dll /D VPCGAME=valve /D SOURCE1=1 /GF /Gm- /MTd /GS /arch:SSE /fp:fast /Zc:wchar_t /Zc:forScope /GR /openmp- /Fo".\DEBUG\.\/" /Fd".\DEBUG\.\/VC120.PDB" /Gd /TP /wd4316 /analyze- /FC  /Gw C:\PROGRAM FILES (X86)\STEAM\STEAMAPPS\SOURCEMODS\HL2_BOSNIAN_TRANSLATION\SRC\TIER1\COMMANDBUFFER.CPP
^C:\PROGRAM FILES (X86)\STEAM\STEAMAPPS\SOURCEMODS\HL2_BOSNIAN_TRANSLATION\SRC\TIER1\CONVAR.CPP
/c /I..\common /I..\public /I..\public\tier0 /I..\public\tier1 /ZI /nologo /W4 /WX /Od /Oy- /D VPC /D RAD_TELEMETRY_DISABLED /D _HAS_ITERATOR_DEBUGGING=0 /D WIN32 /D _WIN32 /D _DEBUG /D DEBUG /D _LIB /D _CRT_SECURE_NO_DEPRECATE /D _CRT_NONSTDC_NO_DEPRECATE /D _ALLOW_RUNTIME_LIBRARY_MISMATCH /D _ALLOW_ITERATOR_DEBUG_LEVEL_MISMATCH /D _ALLOW_MSC_VER_MISMATCH /D _USING_V110_SDK71_ /D _MBCS /D COMPILER_MSVC32 /D COMPILER_MSVC32 /D COMPILER_MSVC /D _DLL_EXT=.dll /D LIBNAME=tier1 /D BINK_VIDEO /D AVI_VIDEO /D WMV_VIDEO /D DEV_BUILD /D FRAME_POINTER_OMISSION_DISABLED /D TIER1_STATIC_LIB /D _EXTERNAL_DLL_EXT=.dll /D VPCGAMECAPS=VALVE /D "PROJECTDIR=C:\Program Files (x86)\Steam\steamapps\sourcemods\hl2_bosnian_translation\src\tier1" /D _DLL_EXT=.dll /D VPCGAME=valve /D SOURCE1=1 /GF /Gm- /MTd /GS /arch:SSE /fp:fast /Zc:wchar_t /Zc:forScope /GR /openmp- /Fo".\DEBUG\.\/" /Fd".\DEBUG\.\/VC120.PDB" /Gd /TP /wd4316 /analyze- /FC  /Gw C:\PROGRAM FILES (X86)\STEAM\STEAMAPPS\SOURCEMODS\HL2_BOSNIAN_TRANSLATION\SRC\TIER1\CONVAR.CPP
^C:\PROGRAM FILES (X86)\STEAM\STEAMAPPS\SOURCEMODS\HL2_BOSNIAN_TRANSLATION\SRC\TIER1\DATAMANAGER.CPP
/c /I..\common /I..\public /I..\public\tier0 /I..\public\tier1 /ZI /nologo /W4 /WX /Od /Oy- /D VPC /D RAD_TELEMETRY_DISABLED /D _HAS_ITERATOR_DEBUGGING=0 /D WIN32 /D _WIN32 /D _DEBUG /D DEBUG /D _LIB /D _CRT_SECURE_NO_DEPRECATE /D _CRT_NONSTDC_NO_DEPRECATE /D _ALLOW_RUNTIME_LIBRARY_MISMATCH /D _ALLOW_ITERATOR_DEBUG_LEVEL_MISMATCH /D _ALLOW_MSC_VER_MISMATCH /D _USING_V110_SDK71_ /D _MBCS /D COMPILER_MSVC32 /D COMPILER_MSVC32 /D COMPILER_MSVC /D _DLL_EXT=.dll /D LIBNAME=tier1 /D BINK_VIDEO /D AVI_VIDEO /D WMV_VIDEO /D DEV_BUILD /D FRAME_POINTER_OMISSION_DISABLED /D TIER1_STATIC_LIB /D _EXTERNAL_DLL_EXT=.dll /D VPCGAMECAPS=VALVE /D "PROJECTDIR=C:\Program Files (x86)\Steam\steamapps\sourcemods\hl2_bosnian_translation\src\tier1" /D _DLL_EXT=.dll /D VPCGAME=valve /D SOURCE1=1 /GF /Gm- /MTd /GS /arch:SSE /fp:fast /Zc:wchar_t /Zc:forScope /GR /openmp- /Fo".\DEBUG\.\/" /Fd".\DEBUG\.\/VC120.PDB" /Gd /TP /wd4316 /analyze- /FC  /Gw C:\PROGRAM FILES (X86)\STEAM\STEAMAPPS\SOURCEMODS\HL2_BOSNIAN_TRANSLATION\SRC\TIER1\DATAMANAGER.CPP
^C:\PROGRAM FILES (X86)\STEAM\STEAMAPPS\SOURCEMODS\HL2_BOSNIAN_TRANSLATION\SRC\TIER1\DIFF.CPP
/c /I..\common /I..\public /I..\public\tier0 /I..\public\tier1 /ZI /nologo /W4 /WX /Od /Oy- /D VPC /D RAD_TELEMETRY_DISABLED /D _HAS_ITERATOR_DEBUGGING=0 /D WIN32 /D _WIN32 /D _DEBUG /D DEBUG /D _LIB /D _CRT_SECURE_NO_DEPRECATE /D _CRT_NONSTDC_NO_DEPRECATE /D _ALLOW_RUNTIME_LIBRARY_MISMATCH /D _ALLOW_ITERATOR_DEBUG_LEVEL_MISMATCH /D _ALLOW_MSC_VER_MISMATCH /D _USING_V110_SDK71_ /D _MBCS /D COMPILER_MSVC32 /D COMPILER_MSVC32 /D COMPILER_MSVC /D _DLL_EXT=.dll /D LIBNAME=tier1 /D BINK_VIDEO /D AVI_VIDEO /D WMV_VIDEO /D DEV_BUILD /D FRAME_POINTER_OMISSION_DISABLED /D TIER1_STATIC_LIB /D _EXTERNAL_DLL_EXT=.dll /D VPCGAMECAPS=VALVE /D "PROJECTDIR=C:\Program Files (x86)\Steam\steamapps\sourcemods\hl2_bosnian_translation\src\tier1" /D _DLL_EXT=.dll /D VPCGAME=valve /D SOURCE1=1 /GF /Gm- /MTd /GS /arch:SSE /fp:fast /Zc:wchar_t /Zc:forScope /GR /openmp- /Fo".\DEBUG\.\/" /Fd".\DEBUG\.\/VC120.PDB" /Gd /TP /wd4316 /analyze- /FC  /Gw C:\PROGRAM FILES (X86)\STEAM\STEAMAPPS\SOURCEMODS\HL2_BOSNIAN_TRANSLATION\SRC\TIER1\DIFF.CPP
^C:\PROGRAM FILES (X86)\STEAM\STEAMAPPS\SOURCEMODS\HL2_BOSNIAN_TRANSLATION\SRC\TIER1\GENERICHASH.CPP
/c /I..\common /I..\public /I..\public\tier0 /I..\public\tier1 /ZI /nologo /W4 /WX /Od /Oy- /D VPC /D RAD_TELEMETRY_DISABLED /D _HAS_ITERATOR_DEBUGGING=0 /D WIN32 /D _WIN32 /D _DEBUG /D DEBUG /D _LIB /D _CRT_SECURE_NO_DEPRECATE /D _CRT_NONSTDC_NO_DEPRECATE /D _ALLOW_RUNTIME_LIBRARY_MISMATCH /D _ALLOW_ITERATOR_DEBUG_LEVEL_MISMATCH /D _ALLOW_MSC_VER_MISMATCH /D _USING_V110_SDK71_ /D _MBCS /D COMPILER_MSVC32 /D COMPILER_MSVC32 /D COMPILER_MSVC /D _DLL_EXT=.dll /D LIBNAME=tier1 /D BINK_VIDEO /D AVI_VIDEO /D WMV_VIDEO /D DEV_BUILD /D FRAME_POINTER_OMISSION_DISABLED /D TIER1_STATIC_LIB /D _EXTERNAL_DLL_EXT=.dll /D VPCGAMECAPS=VALVE /D "PROJECTDIR=C:\Program Files (x86)\Steam\steamapps\sourcemods\hl2_bosnian_translation\src\tier1" /D _DLL_EXT=.dll /D VPCGAME=valve /D SOURCE1=1 /GF /Gm- /MTd /GS /arch:SSE /fp:fast /Zc:wchar_t /Zc:forScope /GR /openmp- /Fo".\DEBUG\.\/" /Fd".\DEBUG\.\/VC120.PDB" /Gd /TP /wd4316 /analyze- /FC  /Gw C:\PROGRAM FILES (X86)\STEAM\STEAMAPPS\SOURCEMODS\HL2_BOSNIAN_TRANSLATION\SRC\TIER1\GENERICHASH.CPP
^C:\PROGRAM FILES (X86)\STEAM\STEAMAPPS\SOURCEMODS\HL2_BOSNIAN_TRANSLATION\SRC\TIER1\ILOCALIZE.CPP
/c /I..\common /I..\public /I..\public\tier0 /I..\public\tier1 /ZI /nologo /W4 /WX /Od /Oy- /D VPC /D RAD_TELEMETRY_DISABLED /D _HAS_ITERATOR_DEBUGGING=0 /D WIN32 /D _WIN32 /D _DEBUG /D DEBUG /D _LIB /D _CRT_SECURE_NO_DEPRECATE /D _CRT_NONSTDC_NO_DEPRECATE /D _ALLOW_RUNTIME_LIBRARY_MISMATCH /D _ALLOW_ITERATOR_DEBUG_LEVEL_MISMATCH /D _ALLOW_MSC_VER_MISMATCH /D _USING_V110_SDK71_ /D _MBCS /D COMPILER_MSVC32 /D COMPILER_MSVC32 /D COMPILER_MSVC /D _DLL_EXT=.dll /D LIBNAME=tier1 /D BINK_VIDEO /D AVI_VIDEO /D WMV_VIDEO /D DEV_BUILD /D FRAME_POINTER_OMISSION_DISABLED /D TIER1_STATIC_LIB /D _EXTERNAL_DLL_EXT=.dll /D VPCGAMECAPS=VALVE /D "PROJECTDIR=C:\Program Files (x86)\Steam\steamapps\sourcemods\hl2_bosnian_translation\src\tier1" /D _DLL_EXT=.dll /D VPCGAME=valve /D SOURCE1=1 /GF /Gm- /MTd /GS /arch:SSE /fp:fast /Zc:wchar_t /Zc:forScope /GR /openmp- /Fo".\DEBUG\.\/" /Fd".\DEBUG\.\/VC120.PDB" /Gd /TP /wd4316 /analyze- /FC  /Gw C:\PROGRAM FILES (X86)\STEAM\STEAMAPPS\SOURCEMODS\HL2_BOSNIAN_TRANSLATION\SRC\TIER1\ILOCALIZE.CPP
^C:\PROGRAM FILES (X86)\STEAM\STEAMAPPS\SOURCEMODS\HL2_BOSNIAN_TRANSLATION\SRC\TIER1\INTERFACE.CPP
/c /I..\common /I..\public /I..\public\tier0 /I..\public\tier1 /ZI /nologo /W4 /WX /Od /Oy- /D VPC /D RAD_TELEMETRY_DISABLED /D _HAS_ITERATOR_DEBUGGING=0 /D WIN32 /D _WIN32 /D _DEBUG /D DEBUG /D _LIB /D _CRT_SECURE_NO_DEPRECATE /D _CRT_NONSTDC_NO_DEPRECATE /D _ALLOW_RUNTIME_LIBRARY_MISMATCH /D _ALLOW_ITERATOR_DEBUG_LEVEL_MISMATCH /D _ALLOW_MSC_VER_MISMATCH /D _USING_V110_SDK71_ /D _MBCS /D COMPILER_MSVC32 /D COMPILER_MSVC32 /D COMPILER_MSVC /D _DLL_EXT=.dll /D LIBNAME=tier1 /D BINK_VIDEO /D AVI_VIDEO /D WMV_VIDEO /D DEV_BUILD /D FRAME_POINTER_OMISSION_DISABLED /D TIER1_STATIC_LIB /D _EXTERNAL_DLL_EXT=.dll /D VPCGAMECAPS=VALVE /D "PROJECTDIR=C:\Program Files (x86)\Steam\steamapps\sourcemods\hl2_bosnian_translation\src\tier1" /D _DLL_EXT=.dll /D VPCGAME=valve /D SOURCE1=1 /GF /Gm- /MTd /GS /arch:SSE /fp:fast /Zc:wchar_t /Zc:forScope /GR /openmp- /Fo".\DEBUG\.\/" /Fd".\DEBUG\.\/VC120.PDB" /Gd /TP /wd4316 /analyze- /FC  /Gw C:\PROGRAM FILES (X86)\STEAM\STEAMAPPS\SOURCEMODS\HL2_BOSNIAN_TRANSLATION\SRC\TIER1\INTERFACE.CPP
^C:\PROGRAM FILES (X86)\STEAM\STEAMAPPS\SOURCEMODS\HL2_BOSNIAN_TRANSLATION\SRC\TIER1\KEYVALUES.CPP
/c /I..\common /I..\public /I..\public\tier0 /I..\public\tier1 /ZI /nologo /W4 /WX /Od /Oy- /D VPC /D RAD_TELEMETRY_DISABLED /D _HAS_ITERATOR_DEBUGGING=0 /D WIN32 /D _WIN32 /D _DEBUG /D DEBUG /D _LIB /D _CRT_SECURE_NO_DEPRECATE /D _CRT_NONSTDC_NO_DEPRECATE /D _ALLOW_RUNTIME_LIBRARY_MISMATCH /D _ALLOW_ITERATOR_DEBUG_LEVEL_MISMATCH /D _ALLOW_MSC_VER_MISMATCH /D _USING_V110_SDK71_ /D _MBCS /D COMPILER_MSVC32 /D COMPILER_MSVC32 /D COMPILER_MSVC /D _DLL_EXT=.dll /D LIBNAME=tier1 /D BINK_VIDEO /D AVI_VIDEO /D WMV_VIDEO /D DEV_BUILD /D FRAME_POINTER_OMISSION_DISABLED /D TIER1_STATIC_LIB /D _EXTERNAL_DLL_EXT=.dll /D VPCGAMECAPS=VALVE /D "PROJECTDIR=C:\Program Files (x86)\Steam\steamapps\sourcemods\hl2_bosnian_translation\src\tier1" /D _DLL_EXT=.dll /D VPCGAME=valve /D SOURCE1=1 /GF /Gm- /MTd /GS /arch:SSE /fp:fast /Zc:wchar_t /Zc:forScope /GR /openmp- /Fo".\DEBUG\.\/" /Fd".\DEBUG\.\/VC120.PDB" /Gd /TP /wd4316 /analyze- /FC  /Gw C:\PROGRAM FILES (X86)\STEAM\STEAMAPPS\SOURCEMODS\HL2_BOSNIAN_TRANSLATION\SRC\TIER1\KEYVALUES.CPP
^C:\PROGRAM FILES (X86)\STEAM\STEAMAPPS\SOURCEMODS\HL2_BOSNIAN_TRANSLATION\SRC\TIER1\KVPACKER.CPP
/c /I..\common /I..\public /I..\public\tier0 /I..\public\tier1 /ZI /nologo /W4 /WX /Od /Oy- /D VPC /D RAD_TELEMETRY_DISABLED /D _HAS_ITERATOR_DEBUGGING=0 /D WIN32 /D _WIN32 /D _DEBUG /D DEBUG /D _LIB /D _CRT_SECURE_NO_DEPRECATE /D _CRT_NONSTDC_NO_DEPRECATE /D _ALLOW_RUNTIME_LIBRARY_MISMATCH /D _ALLOW_ITERATOR_DEBUG_LEVEL_MISMATCH /D _ALLOW_MSC_VER_MISMATCH /D _USING_V110_SDK71_ /D _MBCS /D COMPILER_MSVC32 /D COMPILER_MSVC32 /D COMPILER_MSVC /D _DLL_EXT=.dll /D LIBNAME=tier1 /D BINK_VIDEO /D AVI_VIDEO /D WMV_VIDEO /D DEV_BUILD /D FRAME_POINTER_OMISSION_DISABLED /D TIER1_STATIC_LIB /D _EXTERNAL_DLL_EXT=.dll /D VPCGAMECAPS=VALVE /D "PROJECTDIR=C:\Program Files (x86)\Steam\steamapps\sourcemods\hl2_bosnian_translation\src\tier1" /D _DLL_EXT=.dll /D VPCGAME=valve /D SOURCE1=1 /GF /Gm- /MTd /GS /arch:SSE /fp:fast /Zc:wchar_t /Zc:forScope /GR /openmp- /Fo".\DEBUG\.\/" /Fd".\DEBUG\.\/VC120.PDB" /Gd /TP /wd4316 /analyze- /FC  /Gw C:\PROGRAM FILES (X86)\STEAM\STEAMAPPS\SOURCEMODS\HL2_BOSNIAN_TRANSLATION\SRC\TIER1\KVPACKER.CPP
^C:\PROGRAM FILES (X86)\STEAM\STEAMAPPS\SOURCEMODS\HL2_BOSNIAN_TRANSLATION\SRC\TIER1\LZMADECODER.CPP
/c /I..\common /I..\public /I..\public\tier0 /I..\public\tier1 /ZI /nologo /W4 /WX /Od /Oy- /D VPC /D RAD_TELEMETRY_DISABLED /D _HAS_ITERATOR_DEBUGGING=0 /D WIN32 /D _WIN32 /D _DEBUG /D DEBUG /D _LIB /D _CRT_SECURE_NO_DEPRECATE /D _CRT_NONSTDC_NO_DEPRECATE /D _ALLOW_RUNTIME_LIBRARY_MISMATCH /D _ALLOW_ITERATOR_DEBUG_LEVEL_MISMATCH /D _ALLOW_MSC_VER_MISMATCH /D _USING_V110_SDK71_ /D _MBCS /D COMPILER_MSVC32 /D COMPILER_MSVC32 /D COMPILER_MSVC /D _DLL_EXT=.dll /D LIBNAME=tier1 /D BINK_VIDEO /D AVI_VIDEO /D WMV_VIDEO /D DEV_BUILD /D FRAME_POINTER_OMISSION_DISABLED /D TIER1_STATIC_LIB /D _EXTERNAL_DLL_EXT=.dll /D VPCGAMECAPS=VALVE /D "PROJECTDIR=C:\Program Files (x86)\Steam\steamapps\sourcemods\hl2_bosnian_translation\src\tier1" /D _DLL_EXT=.dll /D VPCGAME=valve /D SOURCE1=1 /GF /Gm- /MTd /GS /arch:SSE /fp:fast /Zc:wchar_t /Zc:forScope /GR /openmp- /Fo".\DEBUG\.\/" /Fd".\DEBUG\.\/VC120.PDB" /Gd /TP /wd4316 /analyze- /FC  /Gw C:\PROGRAM FILES (X86)\STEAM\STEAMAPPS\SOURCEMODS\HL2_BOSNIAN_TRANSLATION\SRC\TIER1\LZMADECODER.CPP
^C:\PROGRAM FILES (X86)\STEAM\STEAMAPPS\SOURCEMODS\HL2_BOSNIAN_TRANSLATION\SRC\TIER1\MEMPOOL.CPP
/c /I..\common /I..\public /I..\public\tier0 /I..\public\tier1 /ZI /nologo /W4 /WX /Od /Oy- /D VPC /D RAD_TELEMETRY_DISABLED /D _HAS_ITERATOR_DEBUGGING=0 /D WIN32 /D _WIN32 /D _DEBUG /D DEBUG /D _LIB /D _CRT_SECURE_NO_DEPRECATE /D _CRT_NONSTDC_NO_DEPRECATE /D _ALLOW_RUNTIME_LIBRARY_MISMATCH /D _ALLOW_ITERATOR_DEBUG_LEVEL_MISMATCH /D _ALLOW_MSC_VER_MISMATCH /D _USING_V110_SDK71_ /D _MBCS /D COMPILER_MSVC32 /D COMPILER_MSVC32 /D COMPILER_MSVC /D _DLL_EXT=.dll /D LIBNAME=tier1 /D BINK_VIDEO /D AVI_VIDEO /D WMV_VIDEO /D DEV_BUILD /D FRAME_POINTER_OMISSION_DISABLED /D TIER1_STATIC_LIB /D _EXTERNAL_DLL_EXT=.dll /D VPCGAMECAPS=VALVE /D "PROJECTDIR=C:\Program Files (x86)\Steam\steamapps\sourcemods\hl2_bosnian_translation\src\tier1" /D _DLL_EXT=.dll /D VPCGAME=valve /D SOURCE1=1 /GF /Gm- /MTd /GS /arch:SSE /fp:fast /Zc:wchar_t /Zc:forScope /GR /openmp- /Fo".\DEBUG\.\/" /Fd".\DEBUG\.\/VC120.PDB" /Gd /TP /wd4316 /analyze- /FC  /Gw C:\PROGRAM FILES (X86)\STEAM\STEAMAPPS\SOURCEMODS\HL2_BOSNIAN_TRANSLATION\SRC\TIER1\MEMPOOL.CPP
^C:\PROGRAM FILES (X86)\STEAM\STEAMAPPS\SOURCEMODS\HL2_BOSNIAN_TRANSLATION\SRC\TIER1\MEMSTACK.CPP
/c /I..\common /I..\public /I..\public\tier0 /I..\public\tier1 /ZI /nologo /W4 /WX /Od /Oy- /D VPC /D RAD_TELEMETRY_DISABLED /D _HAS_ITERATOR_DEBUGGING=0 /D WIN32 /D _WIN32 /D _DEBUG /D DEBUG /D _LIB /D _CRT_SECURE_NO_DEPRECATE /D _CRT_NONSTDC_NO_DEPRECATE /D _ALLOW_RUNTIME_LIBRARY_MISMATCH /D _ALLOW_ITERATOR_DEBUG_LEVEL_MISMATCH /D _ALLOW_MSC_VER_MISMATCH /D _USING_V110_SDK71_ /D _MBCS /D COMPILER_MSVC32 /D COMPILER_MSVC32 /D COMPILER_MSVC /D _DLL_EXT=.dll /D LIBNAME=tier1 /D BINK_VIDEO /D AVI_VIDEO /D WMV_VIDEO /D DEV_BUILD /D FRAME_POINTER_OMISSION_DISABLED /D TIER1_STATIC_LIB /D _EXTERNAL_DLL_EXT=.dll /D VPCGAMECAPS=VALVE /D "PROJECTDIR=C:\Program Files (x86)\Steam\steamapps\sourcemods\hl2_bosnian_translation\src\tier1" /D _DLL_EXT=.dll /D VPCGAME=valve /D SOURCE1=1 /GF /Gm- /MTd /GS /arch:SSE /fp:fast /Zc:wchar_t /Zc:forScope /GR /openmp- /Fo".\DEBUG\.\/" /Fd".\DEBUG\.\/VC120.PDB" /Gd /TP /wd4316 /analyze- /FC  /Gw C:\PROGRAM FILES (X86)\STEAM\STEAMAPPS\SOURCEMODS\HL2_BOSNIAN_TRANSLATION\SRC\TIER1\MEMSTACK.CPP
^C:\PROGRAM FILES (X86)\STEAM\STEAMAPPS\SOURCEMODS\HL2_BOSNIAN_TRANSLATION\SRC\TIER1\NETADR.CPP
/c /I..\common /I..\public /I..\public\tier0 /I..\public\tier1 /ZI /nologo /W4 /WX /Od /Oy- /D VPC /D RAD_TELEMETRY_DISABLED /D _HAS_ITERATOR_DEBUGGING=0 /D WIN32 /D _WIN32 /D _DEBUG /D DEBUG /D _LIB /D _CRT_SECURE_NO_DEPRECATE /D _CRT_NONSTDC_NO_DEPRECATE /D _ALLOW_RUNTIME_LIBRARY_MISMATCH /D _ALLOW_ITERATOR_DEBUG_LEVEL_MISMATCH /D _ALLOW_MSC_VER_MISMATCH /D _USING_V110_SDK71_ /D _MBCS /D COMPILER_MSVC32 /D COMPILER_MSVC32 /D COMPILER_MSVC /D _DLL_EXT=.dll /D LIBNAME=tier1 /D BINK_VIDEO /D AVI_VIDEO /D WMV_VIDEO /D DEV_BUILD /D FRAME_POINTER_OMISSION_DISABLED /D TIER1_STATIC_LIB /D _EXTERNAL_DLL_EXT=.dll /D VPCGAMECAPS=VALVE /D "PROJECTDIR=C:\Program Files (x86)\Steam\steamapps\sourcemods\hl2_bosnian_translation\src\tier1" /D _DLL_EXT=.dll /D VPCGAME=valve /D SOURCE1=1 /GF /Gm- /MTd /GS /arch:SSE /fp:fast /Zc:wchar_t /Zc:forScope /GR /openmp- /Fo".\DEBUG\.\/" /Fd".\DEBUG\.\/VC120.PDB" /Gd /TP /wd4316 /analyze- /FC  /Gw C:\PROGRAM FILES (X86)\STEAM\STEAMAPPS\SOURCEMODS\HL2_BOSNIAN_TRANSLATION\SRC\TIER1\NETADR.CPP
^C:\PROGRAM FILES (X86)\STEAM\STEAMAPPS\SOURCEMODS\HL2_BOSNIAN_TRANSLATION\SRC\TIER1\NEWBITBUF.CPP
/c /I..\common /I..\public /I..\public\tier0 /I..\public\tier1 /ZI /nologo /W4 /WX /Od /Oy- /D VPC /D RAD_TELEMETRY_DISABLED /D _HAS_ITERATOR_DEBUGGING=0 /D WIN32 /D _WIN32 /D _DEBUG /D DEBUG /D _LIB /D _CRT_SECURE_NO_DEPRECATE /D _CRT_NONSTDC_NO_DEPRECATE /D _ALLOW_RUNTIME_LIBRARY_MISMATCH /D _ALLOW_ITERATOR_DEBUG_LEVEL_MISMATCH /D _ALLOW_MSC_VER_MISMATCH /D _USING_V110_SDK71_ /D _MBCS /D COMPILER_MSVC32 /D COMPILER_MSVC32 /D COMPILER_MSVC /D _DLL_EXT=.dll /D LIBNAME=tier1 /D BINK_VIDEO /D AVI_VIDEO /D WMV_VIDEO /D DEV_BUILD /D FRAME_POINTER_OMISSION_DISABLED /D TIER1_STATIC_LIB /D _EXTERNAL_DLL_EXT=.dll /D VPCGAMECAPS=VALVE /D "PROJECTDIR=C:\Program Files (x86)\Steam\steamapps\sourcemods\hl2_bosnian_translation\src\tier1" /D _DLL_EXT=.dll /D VPCGAME=valve /D SOURCE1=1 /GF /Gm- /MTd /GS /arch:SSE /fp:fast /Zc:wchar_t /Zc:forScope /GR /openmp- /Fo".\DEBUG\.\/" /Fd".\DEBUG\.\/VC120.PDB" /Gd /TP /wd4316 /analyze- /FC  /Gw C:\PROGRAM FILES (X86)\STEAM\STEAMAPPS\SOURCEMODS\HL2_BOSNIAN_TRANSLATION\SRC\TIER1\NEWBITBUF.CPP
^C:\PROGRAM FILES (X86)\STEAM\STEAMAPPS\SOURCEMODS\HL2_BOSNIAN_TRANSLATION\SRC\TIER1\RANGECHECKEDVAR.CPP
/c /I..\common /I..\public /I..\public\tier0 /I..\public\tier1 /ZI /nologo /W4 /WX /Od /Oy- /D VPC /D RAD_TELEMETRY_DISABLED /D _HAS_ITERATOR_DEBUGGING=0 /D WIN32 /D _WIN32 /D _DEBUG /D DEBUG /D _LIB /D _CRT_SECURE_NO_DEPRECATE /D _CRT_NONSTDC_NO_DEPRECATE /D _ALLOW_RUNTIME_LIBRARY_MISMATCH /D _ALLOW_ITERATOR_DEBUG_LEVEL_MISMATCH /D _ALLOW_MSC_VER_MISMATCH /D _USING_V110_SDK71_ /D _MBCS /D COMPILER_MSVC32 /D COMPILER_MSVC32 /D COMPILER_MSVC /D _DLL_EXT=.dll /D LIBNAME=tier1 /D BINK_VIDEO /D AVI_VIDEO /D WMV_VIDEO /D DEV_BUILD /D FRAME_POINTER_OMISSION_DISABLED /D TIER1_STATIC_LIB /D _EXTERNAL_DLL_EXT=.dll /D VPCGAMECAPS=VALVE /D "PROJECTDIR=C:\Program Files (x86)\Steam\steamapps\sourcemods\hl2_bosnian_translation\src\tier1" /D _DLL_EXT=.dll /D VPCGAME=valve /D SOURCE1=1 /GF /Gm- /MTd /GS /arch:SSE /fp:fast /Zc:wchar_t /Zc:forScope /GR /openmp- /Fo".\DEBUG\.\/" /Fd".\DEBUG\.\/VC120.PDB" /Gd /TP /wd4316 /analyze- /FC  /Gw C:\PROGRAM FILES (X86)\STEAM\STEAMAPPS\SOURCEMODS\HL2_BOSNIAN_TRANSLATION\SRC\TIER1\RANGECHECKEDVAR.CPP
^C:\PROGRAM FILES (X86)\STEAM\STEAMAPPS\SOURCEMODS\HL2_BOSNIAN_TRANSLATION\SRC\TIER1\RELIABLETIMER.CPP
/c /I..\common /I..\public /I..\public\tier0 /I..\public\tier1 /ZI /nologo /W4 /WX /Od /Oy- /D VPC /D RAD_TELEMETRY_DISABLED /D _HAS_ITERATOR_DEBUGGING=0 /D WIN32 /D _WIN32 /D _DEBUG /D DEBUG /D _LIB /D _CRT_SECURE_NO_DEPRECATE /D _CRT_NONSTDC_NO_DEPRECATE /D _ALLOW_RUNTIME_LIBRARY_MISMATCH /D _ALLOW_ITERATOR_DEBUG_LEVEL_MISMATCH /D _ALLOW_MSC_VER_MISMATCH /D _USING_V110_SDK71_ /D _MBCS /D COMPILER_MSVC32 /D COMPILER_MSVC32 /D COMPILER_MSVC /D _DLL_EXT=.dll /D LIBNAME=tier1 /D BINK_VIDEO /D AVI_VIDEO /D WMV_VIDEO /D DEV_BUILD /D FRAME_POINTER_OMISSION_DISABLED /D TIER1_STATIC_LIB /D _EXTERNAL_DLL_EXT=.dll /D VPCGAMECAPS=VALVE /D "PROJECTDIR=C:\Program Files (x86)\Steam\steamapps\sourcemods\hl2_bosnian_translation\src\tier1" /D _DLL_EXT=.dll /D VPCGAME=valve /D SOURCE1=1 /GF /Gm- /MTd /GS /arch:SSE /fp:fast /Zc:wchar_t /Zc:forScope /GR /openmp- /Fo".\DEBUG\.\/" /Fd".\DEBUG\.\/VC120.PDB" /Gd /TP /wd4316 /analyze- /FC  /Gw C:\PROGRAM FILES (X86)\STEAM\STEAMAPPS\SOURCEMODS\HL2_BOSNIAN_TRANSLATION\SRC\TIER1\RELIABLETIMER.CPP
^C:\PROGRAM FILES (X86)\STEAM\STEAMAPPS\SOURCEMODS\HL2_BOSNIAN_TRANSLATION\SRC\TIER1\SNAPPY-SINKSOURCE.CPP
/c /I..\common /I..\public /I..\public\tier0 /I..\public\tier1 /ZI /nologo /W4 /WX /Od /Oy- /D VPC /D RAD_TELEMETRY_DISABLED /D _HAS_ITERATOR_DEBUGGING=0 /D WIN32 /D _WIN32 /D _DEBUG /D DEBUG /D _LIB /D _CRT_SECURE_NO_DEPRECATE /D _CRT_NONSTDC_NO_DEPRECATE /D _ALLOW_RUNTIME_LIBRARY_MISMATCH /D _ALLOW_ITERATOR_DEBUG_LEVEL_MISMATCH /D _ALLOW_MSC_VER_MISMATCH /D _USING_V110_SDK71_ /D _MBCS /D COMPILER_MSVC32 /D COMPILER_MSVC32 /D COMPILER_MSVC /D _DLL_EXT=.dll /D LIBNAME=tier1 /D BINK_VIDEO /D AVI_VIDEO /D WMV_VIDEO /D DEV_BUILD /D FRAME_POINTER_OMISSION_DISABLED /D TIER1_STATIC_LIB /D _EXTERNAL_DLL_EXT=.dll /D VPCGAMECAPS=VALVE /D "PROJECTDIR=C:\Program Files (x86)\Steam\steamapps\sourcemods\hl2_bosnian_translation\src\tier1" /D _DLL_EXT=.dll /D VPCGAME=valve /D SOURCE1=1 /GF /Gm- /MTd /GS /arch:SSE /fp:fast /Zc:wchar_t /Zc:forScope /GR /openmp- /Fo".\DEBUG\.\/" /Fd".\DEBUG\.\/VC120.PDB" /Gd /TP /wd4316 /analyze- /FC  /Gw C:\PROGRAM FILES (X86)\STEAM\STEAMAPPS\SOURCEMODS\HL2_BOSNIAN_TRANSLATION\SRC\TIER1\SNAPPY-SINKSOURCE.CPP
^C:\PROGRAM FILES (X86)\STEAM\STEAMAPPS\SOURCEMODS\HL2_BOSNIAN_TRANSLATION\SRC\TIER1\SNAPPY-STUBS-INTERNAL.CPP
/c /I..\common /I..\public /I..\public\tier0 /I..\public\tier1 /ZI /nologo /W4 /WX /Od /Oy- /D VPC /D RAD_TELEMETRY_DISABLED /D _HAS_ITERATOR_DEBUGGING=0 /D WIN32 /D _WIN32 /D _DEBUG /D DEBUG /D _LIB /D _CRT_SECURE_NO_DEPRECATE /D _CRT_NONSTDC_NO_DEPRECATE /D _ALLOW_RUNTIME_LIBRARY_MISMATCH /D _ALLOW_ITERATOR_DEBUG_LEVEL_MISMATCH /D _ALLOW_MSC_VER_MISMATCH /D _USING_V110_SDK71_ /D _MBCS /D COMPILER_MSVC32 /D COMPILER_MSVC32 /D COMPILER_MSVC /D _DLL_EXT=.dll /D LIBNAME=tier1 /D BINK_VIDEO /D AVI_VIDEO /D WMV_VIDEO /D DEV_BUILD /D FRAME_POINTER_OMISSION_DISABLED /D TIER1_STATIC_LIB /D _EXTERNAL_DLL_EXT=.dll /D VPCGAMECAPS=VALVE /D "PROJECTDIR=C:\Program Files (x86)\Steam\steamapps\sourcemods\hl2_bosnian_translation\src\tier1" /D _DLL_EXT=.dll /D VPCGAME=valve /D SOURCE1=1 /GF /Gm- /MTd /GS /arch:SSE /fp:fast /Zc:wchar_t /Zc:forScope /GR /openmp- /Fo".\DEBUG\.\/" /Fd".\DEBUG\.\/VC120.PDB" /Gd /TP /wd4316 /analyze- /FC  /Gw C:\PROGRAM FILES (X86)\STEAM\STEAMAPPS\SOURCEMODS\HL2_BOSNIAN_TRANSLATION\SRC\TIER1\SNAPPY-STUBS-INTERNAL.CPP
^C:\PROGRAM FILES (X86)\STEAM\STEAMAPPS\SOURCEMODS\HL2_BOSNIAN_TRANSLATION\SRC\TIER1\SNAPPY.CPP
/c /I..\common /I..\public /I..\public\tier0 /I..\public\tier1 /ZI /nologo /W4 /WX /Od /Oy- /D VPC /D RAD_TELEMETRY_DISABLED /D _HAS_ITERATOR_DEBUGGING=0 /D WIN32 /D _WIN32 /D _DEBUG /D DEBUG /D _LIB /D _CRT_SECURE_NO_DEPRECATE /D _CRT_NONSTDC_NO_DEPRECATE /D _ALLOW_RUNTIME_LIBRARY_MISMATCH /D _ALLOW_ITERATOR_DEBUG_LEVEL_MISMATCH /D _ALLOW_MSC_VER_MISMATCH /D _USING_V110_SDK71_ /D _MBCS /D COMPILER_MSVC32 /D COMPILER_MSVC32 /D COMPILER_MSVC /D _DLL_EXT=.dll /D LIBNAME=tier1 /D BINK_VIDEO /D AVI_VIDEO /D WMV_VIDEO /D DEV_BUILD /D FRAME_POINTER_OMISSION_DISABLED /D TIER1_STATIC_LIB /D _EXTERNAL_DLL_EXT=.dll /D VPCGAMECAPS=VALVE /D "PROJECTDIR=C:\Program Files (x86)\Steam\steamapps\sourcemods\hl2_bosnian_translation\src\tier1" /D _DLL_EXT=.dll /D VPCGAME=valve /D SOURCE1=1 /GF /Gm- /MTd /GS /arch:SSE /fp:fast /Zc:wchar_t /Zc:forScope /GR /openmp- /Fo".\DEBUG\.\/" /Fd".\DEBUG\.\/VC120.PDB" /Gd /TP /wd4316 /analyze- /FC  /Gw C:\PROGRAM FILES (X86)\STEAM\STEAMAPPS\SOURCEMODS\HL2_BOSNIAN_TRANSLATION\SRC\TIER1\SNAPPY.CPP
^C:\PROGRAM FILES (X86)\STEAM\STEAMAPPS\SOURCEMODS\HL2_BOSNIAN_TRANSLATION\SRC\TIER1\SPARSEMATRIX.CPP
/c /I..\common /I..\public /I..\public\tier0 /I..\public\tier1 /ZI /nologo /W4 /WX /Od /Oy- /D VPC /D RAD_TELEMETRY_DISABLED /D _HAS_ITERATOR_DEBUGGING=0 /D WIN32 /D _WIN32 /D _DEBUG /D DEBUG /D _LIB /D _CRT_SECURE_NO_DEPRECATE /D _CRT_NONSTDC_NO_DEPRECATE /D _ALLOW_RUNTIME_LIBRARY_MISMATCH /D _ALLOW_ITERATOR_DEBUG_LEVEL_MISMATCH /D _ALLOW_MSC_VER_MISMATCH /D _USING_V110_SDK71_ /D _MBCS /D COMPILER_MSVC32 /D COMPILER_MSVC32 /D COMPILER_MSVC /D _DLL_EXT=.dll /D LIBNAME=tier1 /D BINK_VIDEO /D AVI_VIDEO /D WMV_VIDEO /D DEV_BUILD /D FRAME_POINTER_OMISSION_DISABLED /D TIER1_STATIC_LIB /D _EXTERNAL_DLL_EXT=.dll /D VPCGAMECAPS=VALVE /D "PROJECTDIR=C:\Program Files (x86)\Steam\steamapps\sourcemods\hl2_bosnian_translation\src\tier1" /D _DLL_EXT=.dll /D VPCGAME=valve /D SOURCE1=1 /GF /Gm- /MTd /GS /arch:SSE /fp:fast /Zc:wchar_t /Zc:forScope /GR /openmp- /Fo".\DEBUG\.\/" /Fd".\DEBUG\.\/VC120.PDB" /Gd /TP /wd4316 /analyze- /FC  /Gw C:\PROGRAM FILES (X86)\STEAM\STEAMAPPS\SOURCEMODS\HL2_BOSNIAN_TRANSLATION\SRC\TIER1\SPARSEMATRIX.CPP
^C:\PROGRAM FILES (X86)\STEAM\STEAMAPPS\SOURCEMODS\HL2_BOSNIAN_TRANSLATION\SRC\TIER1\SPLITSTRING.CPP
/c /I..\common /I..\public /I..\public\tier0 /I..\public\tier1 /ZI /nologo /W4 /WX /Od /Oy- /D VPC /D RAD_TELEMETRY_DISABLED /D _HAS_ITERATOR_DEBUGGING=0 /D WIN32 /D _WIN32 /D _DEBUG /D DEBUG /D _LIB /D _CRT_SECURE_NO_DEPRECATE /D _CRT_NONSTDC_NO_DEPRECATE /D _ALLOW_RUNTIME_LIBRARY_MISMATCH /D _ALLOW_ITERATOR_DEBUG_LEVEL_MISMATCH /D _ALLOW_MSC_VER_MISMATCH /D _USING_V110_SDK71_ /D _MBCS /D COMPILER_MSVC32 /D COMPILER_MSVC32 /D COMPILER_MSVC /D _DLL_EXT=.dll /D LIBNAME=tier1 /D BINK_VIDEO /D AVI_VIDEO /D WMV_VIDEO /D DEV_BUILD /D FRAME_POINTER_OMISSION_DISABLED /D TIER1_STATIC_LIB /D _EXTERNAL_DLL_EXT=.dll /D VPCGAMECAPS=VALVE /D "PROJECTDIR=C:\Program Files (x86)\Steam\steamapps\sourcemods\hl2_bosnian_translation\src\tier1" /D _DLL_EXT=.dll /D VPCGAME=valve /D SOURCE1=1 /GF /Gm- /MTd /GS /arch:SSE /fp:fast /Zc:wchar_t /Zc:forScope /GR /openmp- /Fo".\DEBUG\.\/" /Fd".\DEBUG\.\/VC120.PDB" /Gd /TP /wd4316 /analyze- /FC  /Gw C:\PROGRAM FILES (X86)\STEAM\STEAMAPPS\SOURCEMODS\HL2_BOSNIAN_TRANSLATION\SRC\TIER1\SPLITSTRING.CPP
^C:\PROGRAM FILES (X86)\STEAM\STEAMAPPS\SOURCEMODS\HL2_BOSNIAN_TRANSLATION\SRC\TIER1\STRINGPOOL.CPP
/c /I..\common /I..\public /I..\public\tier0 /I..\public\tier1 /ZI /nologo /W4 /WX /Od /Oy- /D VPC /D RAD_TELEMETRY_DISABLED /D _HAS_ITERATOR_DEBUGGING=0 /D WIN32 /D _WIN32 /D _DEBUG /D DEBUG /D _LIB /D _CRT_SECURE_NO_DEPRECATE /D _CRT_NONSTDC_NO_DEPRECATE /D _ALLOW_RUNTIME_LIBRARY_MISMATCH /D _ALLOW_ITERATOR_DEBUG_LEVEL_MISMATCH /D _ALLOW_MSC_VER_MISMATCH /D _USING_V110_SDK71_ /D _MBCS /D COMPILER_MSVC32 /D COMPILER_MSVC32 /D COMPILER_MSVC /D _DLL_EXT=.dll /D LIBNAME=tier1 /D BINK_VIDEO /D AVI_VIDEO /D WMV_VIDEO /D DEV_BUILD /D FRAME_POINTER_OMISSION_DISABLED /D TIER1_STATIC_LIB /D _EXTERNAL_DLL_EXT=.dll /D VPCGAMECAPS=VALVE /D "PROJECTDIR=C:\Program Files (x86)\Steam\steamapps\sourcemods\hl2_bosnian_translation\src\tier1" /D _DLL_EXT=.dll /D VPCGAME=valve /D SOURCE1=1 /GF /Gm- /MTd /GS /arch:SSE /fp:fast /Zc:wchar_t /Zc:forScope /GR /openmp- /Fo".\DEBUG\.\/" /Fd".\DEBUG\.\/VC120.PDB" /Gd /TP /wd4316 /analyze- /FC  /Gw C:\PROGRAM FILES (X86)\STEAM\STEAMAPPS\SOURCEMODS\HL2_BOSNIAN_TRANSLATION\SRC\TIER1\STRINGPOOL.CPP
^C:\PROGRAM FILES (X86)\STEAM\STEAMAPPS\SOURCEMODS\HL2_BOSNIAN_TRANSLATION\SRC\TIER1\STRTOOLS.CPP
/c /I..\common /I..\public /I..\public\tier0 /I..\public\tier1 /ZI /nologo /W4 /WX /Od /Oy- /D VPC /D RAD_TELEMETRY_DISABLED /D _HAS_ITERATOR_DEBUGGING=0 /D WIN32 /D _WIN32 /D _DEBUG /D DEBUG /D _LIB /D _CRT_SECURE_NO_DEPRECATE /D _CRT_NONSTDC_NO_DEPRECATE /D _ALLOW_RUNTIME_LIBRARY_MISMATCH /D _ALLOW_ITERATOR_DEBUG_LEVEL_MISMATCH /D _ALLOW_MSC_VER_MISMATCH /D _USING_V110_SDK71_ /D _MBCS /D COMPILER_MSVC32 /D COMPILER_MSVC32 /D COMPILER_MSVC /D _DLL_EXT=.dll /D LIBNAME=tier1 /D BINK_VIDEO /D AVI_VIDEO /D WMV_VIDEO /D DEV_BUILD /D FRAME_POINTER_OMISSION_DISABLED /D TIER1_STATIC_LIB /D _EXTERNAL_DLL_EXT=.dll /D VPCGAMECAPS=VALVE /D "PROJECTDIR=C:\Program Files (x86)\Steam\steamapps\sourcemods\hl2_bosnian_translation\src\tier1" /D _DLL_EXT=.dll /D VPCGAME=valve /D SOURCE1=1 /GF /Gm- /MTd /GS /arch:SSE /fp:fast /Zc:wchar_t /Zc:forScope /GR /openmp- /Fo".\DEBUG\.\/" /Fd".\DEBUG\.\/VC120.PDB" /Gd /TP /wd4316 /analyze- /FC  /Gw C:\PROGRAM FILES (X86)\STEAM\STEAMAPPS\SOURCEMODS\HL2_BOSNIAN_TRANSLATION\SRC\TIER1\STRTOOLS.CPP
^C:\PROGRAM FILES (X86)\STEAM\STEAMAPPS\SOURCEMODS\HL2_BOSNIAN_TRANSLATION\SRC\TIER1\TIER1.CPP
/c /I..\common /I..\public /I..\public\tier0 /I..\public\tier1 /ZI /nologo /W4 /WX /Od /Oy- /D VPC /D RAD_TELEMETRY_DISABLED /D _HAS_ITERATOR_DEBUGGING=0 /D WIN32 /D _WIN32 /D _DEBUG /D DEBUG /D _LIB /D _CRT_SECURE_NO_DEPRECATE /D _CRT_NONSTDC_NO_DEPRECATE /D _ALLOW_RUNTIME_LIBRARY_MISMATCH /D _ALLOW_ITERATOR_DEBUG_LEVEL_MISMATCH /D _ALLOW_MSC_VER_MISMATCH /D _USING_V110_SDK71_ /D _MBCS /D COMPILER_MSVC32 /D COMPILER_MSVC32 /D COMPILER_MSVC /D _DLL_EXT=.dll /D LIBNAME=tier1 /D BINK_VIDEO /D AVI_VIDEO /D WMV_VIDEO /D DEV_BUILD /D FRAME_POINTER_OMISSION_DISABLED /D TIER1_STATIC_LIB /D _EXTERNAL_DLL_EXT=.dll /D VPCGAMECAPS=VALVE /D "PROJECTDIR=C:\Program Files (x86)\Steam\steamapps\sourcemods\hl2_bosnian_translation\src\tier1" /D _DLL_EXT=.dll /D VPCGAME=valve /D SOURCE1=1 /GF /Gm- /MTd /GS /arch:SSE /fp:fast /Zc:wchar_t /Zc:forScope /GR /openmp- /Fo".\DEBUG\.\/" /Fd".\DEBUG\.\/VC120.PDB" /Gd /TP /wd4316 /analyze- /FC  /Gw C:\PROGRAM FILES (X86)\STEAM\STEAMAPPS\SOURCEMODS\HL2_BOSNIAN_TRANSLATION\SRC\TIER1\TIER1.CPP
^C:\PROGRAM FILES (X86)\STEAM\STEAMAPPS\SOURCEMODS\HL2_BOSNIAN_TRANSLATION\SRC\TIER1\TOKENREADER.CPP
/c /I..\common /I..\public /I..\public\tier0 /I..\public\tier1 /ZI /nologo /W4 /WX /Od /Oy- /D VPC /D RAD_TELEMETRY_DISABLED /D _HAS_ITERATOR_DEBUGGING=0 /D WIN32 /D _WIN32 /D _DEBUG /D DEBUG /D _LIB /D _CRT_SECURE_NO_DEPRECATE /D _CRT_NONSTDC_NO_DEPRECATE /D _ALLOW_RUNTIME_LIBRARY_MISMATCH /D _ALLOW_ITERATOR_DEBUG_LEVEL_MISMATCH /D _ALLOW_MSC_VER_MISMATCH /D _USING_V110_SDK71_ /D _MBCS /D COMPILER_MSVC32 /D COMPILER_MSVC32 /D COMPILER_MSVC /D _DLL_EXT=.dll /D LIBNAME=tier1 /D BINK_VIDEO /D AVI_VIDEO /D WMV_VIDEO /D DEV_BUILD /D FRAME_POINTER_OMISSION_DISABLED /D TIER1_STATIC_LIB /D _EXTERNAL_DLL_EXT=.dll /D VPCGAMECAPS=VALVE /D "PROJECTDIR=C:\Program Files (x86)\Steam\steamapps\sourcemods\hl2_bosnian_translation\src\tier1" /D _DLL_EXT=.dll /D VPCGAME=valve /D SOURCE1=1 /GF /Gm- /MTd /GS /arch:SSE /fp:fast /Zc:wchar_t /Zc:forScope /GR /openmp- /Fo".\DEBUG\.\/" /Fd".\DEBUG\.\/VC120.PDB" /Gd /TP /wd4316 /analyze- /FC  /Gw C:\PROGRAM FILES (X86)\STEAM\STEAMAPPS\SOURCEMODS\HL2_BOSNIAN_TRANSLATION\SRC\TIER1\TOKENREADER.CPP
^C:\PROGRAM FILES (X86)\STEAM\STEAMAPPS\SOURCEMODS\HL2_BOSNIAN_TRANSLATION\SRC\TIER1\UNIQUEID.CPP
/c /I..\common /I..\public /I..\public\tier0 /I..\public\tier1 /ZI /nologo /W4 /WX /Od /Oy- /D VPC /D RAD_TELEMETRY_DISABLED /D _HAS_ITERATOR_DEBUGGING=0 /D WIN32 /D _WIN32 /D _DEBUG /D DEBUG /D _LIB /D _CRT_SECURE_NO_DEPRECATE /D _CRT_NONSTDC_NO_DEPRECATE /D _ALLOW_RUNTIME_LIBRARY_MISMATCH /D _ALLOW_ITERATOR_DEBUG_LEVEL_MISMATCH /D _ALLOW_MSC_VER_MISMATCH /D _USING_V110_SDK71_ /D _MBCS /D COMPILER_MSVC32 /D COMPILER_MSVC32 /D COMPILER_MSVC /D _DLL_EXT=.dll /D LIBNAME=tier1 /D BINK_VIDEO /D AVI_VIDEO /D WMV_VIDEO /D DEV_BUILD /D FRAME_POINTER_OMISSION_DISABLED /D TIER1_STATIC_LIB /D _EXTERNAL_DLL_EXT=.dll /D VPCGAMECAPS=VALVE /D "PROJECTDIR=C:\Program Files (x86)\Steam\steamapps\sourcemods\hl2_bosnian_translation\src\tier1" /D _DLL_EXT=.dll /D VPCGAME=valve /D SOURCE1=1 /GF /Gm- /MTd /GS /arch:SSE /fp:fast /Zc:wchar_t /Zc:forScope /GR /openmp- /Fo".\DEBUG\.\/" /Fd".\DEBUG\.\/VC120.PDB" /Gd /TP /wd4316 /analyze- /FC  /Gw C:\PROGRAM FILES (X86)\STEAM\STEAMAPPS\SOURCEMODS\HL2_BOSNIAN_TRANSLATION\SRC\TIER1\UNIQUEID.CPP
^C:\PROGRAM FILES (X86)\STEAM\STEAMAPPS\SOURCEMODS\HL2_BOSNIAN_TRANSLATION\SRC\TIER1\UTLBUFFER.CPP
/c /I..\common /I..\public /I..\public\tier0 /I..\public\tier1 /ZI /nologo /W4 /WX /Od /Oy- /D VPC /D RAD_TELEMETRY_DISABLED /D _HAS_ITERATOR_DEBUGGING=0 /D WIN32 /D _WIN32 /D _DEBUG /D DEBUG /D _LIB /D _CRT_SECURE_NO_DEPRECATE /D _CRT_NONSTDC_NO_DEPRECATE /D _ALLOW_RUNTIME_LIBRARY_MISMATCH /D _ALLOW_ITERATOR_DEBUG_LEVEL_MISMATCH /D _ALLOW_MSC_VER_MISMATCH /D _USING_V110_SDK71_ /D _MBCS /D COMPILER_MSVC32 /D COMPILER_MSVC32 /D COMPILER_MSVC /D _DLL_EXT=.dll /D LIBNAME=tier1 /D BINK_VIDEO /D AVI_VIDEO /D WMV_VIDEO /D DEV_BUILD /D FRAME_POINTER_OMISSION_DISABLED /D TIER1_STATIC_LIB /D _EXTERNAL_DLL_EXT=.dll /D VPCGAMECAPS=VALVE /D "PROJECTDIR=C:\Program Files (x86)\Steam\steamapps\sourcemods\hl2_bosnian_translation\src\tier1" /D _DLL_EXT=.dll /D VPCGAME=valve /D SOURCE1=1 /GF /Gm- /MTd /GS /arch:SSE /fp:fast /Zc:wchar_t /Zc:forScope /GR /openmp- /Fo".\DEBUG\.\/" /Fd".\DEBUG\.\/VC120.PDB" /Gd /TP /wd4316 /analyze- /FC  /Gw C:\PROGRAM FILES (X86)\STEAM\STEAMAPPS\SOURCEMODS\HL2_BOSNIAN_TRANSLATION\SRC\TIER1\UTLBUFFER.CPP
^C:\PROGRAM FILES (X86)\STEAM\STEAMAPPS\SOURCEMODS\HL2_BOSNIAN_TRANSLATION\SRC\TIER1\UTLBUFFERUTIL.CPP
/c /I..\common /I..\public /I..\public\tier0 /I..\public\tier1 /ZI /nologo /W4 /WX /Od /Oy- /D VPC /D RAD_TELEMETRY_DISABLED /D _HAS_ITERATOR_DEBUGGING=0 /D WIN32 /D _WIN32 /D _DEBUG /D DEBUG /D _LIB /D _CRT_SECURE_NO_DEPRECATE /D _CRT_NONSTDC_NO_DEPRECATE /D _ALLOW_RUNTIME_LIBRARY_MISMATCH /D _ALLOW_ITERATOR_DEBUG_LEVEL_MISMATCH /D _ALLOW_MSC_VER_MISMATCH /D _USING_V110_SDK71_ /D _MBCS /D COMPILER_MSVC32 /D COMPILER_MSVC32 /D COMPILER_MSVC /D _DLL_EXT=.dll /D LIBNAME=tier1 /D BINK_VIDEO /D AVI_VIDEO /D WMV_VIDEO /D DEV_BUILD /D FRAME_POINTER_OMISSION_DISABLED /D TIER1_STATIC_LIB /D _EXTERNAL_DLL_EXT=.dll /D VPCGAMECAPS=VALVE /D "PROJECTDIR=C:\Program Files (x86)\Steam\steamapps\sourcemods\hl2_bosnian_translation\src\tier1" /D _DLL_EXT=.dll /D VPCGAME=valve /D SOURCE1=1 /GF /Gm- /MTd /GS /arch:SSE /fp:fast /Zc:wchar_t /Zc:forScope /GR /openmp- /Fo".\DEBUG\.\/" /Fd".\DEBUG\.\/VC120.PDB" /Gd /TP /wd4316 /analyze- /FC  /Gw C:\PROGRAM FILES (X86)\STEAM\STEAMAPPS\SOURCEMODS\HL2_BOSNIAN_TRANSLATION\SRC\TIER1\UTLBUFFERUTIL.CPP
^C:\PROGRAM FILES (X86)\STEAM\STEAMAPPS\SOURCEMODS\HL2_BOSNIAN_TRANSLATION\SRC\TIER1\UTLSTRING.CPP
/c /I..\common /I..\public /I..\public\tier0 /I..\public\tier1 /ZI /nologo /W4 /WX /Od /Oy- /D VPC /D RAD_TELEMETRY_DISABLED /D _HAS_ITERATOR_DEBUGGING=0 /D WIN32 /D _WIN32 /D _DEBUG /D DEBUG /D _LIB /D _CRT_SECURE_NO_DEPRECATE /D _CRT_NONSTDC_NO_DEPRECATE /D _ALLOW_RUNTIME_LIBRARY_MISMATCH /D _ALLOW_ITERATOR_DEBUG_LEVEL_MISMATCH /D _ALLOW_MSC_VER_MISMATCH /D _USING_V110_SDK71_ /D _MBCS /D COMPILER_MSVC32 /D COMPILER_MSVC32 /D COMPILER_MSVC /D _DLL_EXT=.dll /D LIBNAME=tier1 /D BINK_VIDEO /D AVI_VIDEO /D WMV_VIDEO /D DEV_BUILD /D FRAME_POINTER_OMISSION_DISABLED /D TIER1_STATIC_LIB /D _EXTERNAL_DLL_EXT=.dll /D VPCGAMECAPS=VALVE /D "PROJECTDIR=C:\Program Files (x86)\Steam\steamapps\sourcemods\hl2_bosnian_translation\src\tier1" /D _DLL_EXT=.dll /D VPCGAME=valve /D SOURCE1=1 /GF /Gm- /MTd /GS /arch:SSE /fp:fast /Zc:wchar_t /Zc:forScope /GR /openmp- /Fo".\DEBUG\.\/" /Fd".\DEBUG\.\/VC120.PDB" /Gd /TP /wd4316 /analyze- /FC  /Gw C:\PROGRAM FILES (X86)\STEAM\STEAMAPPS\SOURCEMODS\HL2_BOSNIAN_TRANSLATION\SRC\TIER1\UTLSTRING.CPP
^C:\PROGRAM FILES (X86)\STEAM\STEAMAPPS\SOURCEMODS\HL2_BOSNIAN_TRANSLATION\SRC\TIER1\UTLSYMBOL.CPP
/c /I..\common /I..\public /I..\public\tier0 /I..\public\tier1 /ZI /nologo /W4 /WX /Od /Oy- /D VPC /D RAD_TELEMETRY_DISABLED /D _HAS_ITERATOR_DEBUGGING=0 /D WIN32 /D _WIN32 /D _DEBUG /D DEBUG /D _LIB /D _CRT_SECURE_NO_DEPRECATE /D _CRT_NONSTDC_NO_DEPRECATE /D _ALLOW_RUNTIME_LIBRARY_MISMATCH /D _ALLOW_ITERATOR_DEBUG_LEVEL_MISMATCH /D _ALLOW_MSC_VER_MISMATCH /D _USING_V110_SDK71_ /D _MBCS /D COMPILER_MSVC32 /D COMPILER_MSVC32 /D COMPILER_MSVC /D _DLL_EXT=.dll /D LIBNAME=tier1 /D BINK_VIDEO /D AVI_VIDEO /D WMV_VIDEO /D DEV_BUILD /D FRAME_POINTER_OMISSION_DISABLED /D TIER1_STATIC_LIB /D _EXTERNAL_DLL_EXT=.dll /D VPCGAMECAPS=VALVE /D "PROJECTDIR=C:\Program Files (x86)\Steam\steamapps\sourcemods\hl2_bosnian_translation\src\tier1" /D _DLL_EXT=.dll /D VPCGAME=valve /D SOURCE1=1 /GF /Gm- /MTd /GS /arch:SSE /fp:fast /Zc:wchar_t /Zc:forScope /GR /openmp- /Fo".\DEBUG\.\/" /Fd".\DEBUG\.\/VC120.PDB" /Gd /TP /wd4316 /analyze- /FC  /Gw C:\PROGRAM FILES (X86)\STEAM\STEAMAPPS\SOURCEMODS\HL2_BOSNIAN_TRANSLATION\SRC\TIER1\UTLSYMBOL.CPP
^C:\PROGRAM FILES (X86)\STEAM\STEAMAPPS\SOURCEMODS\HL2_BOSNIAN_TRANSLATION\SRC\TIER1\PROCESSOR_DETECT.CPP
/c /I..\common /I..\public /I..\public\tier0 /I..\public\tier1 /ZI /nologo /W4 /WX /Od /Oy- /D VPC /D RAD_TELEMETRY_DISABLED /D _HAS_ITERATOR_DEBUGGING=0 /D WIN32 /D _WIN32 /D _DEBUG /D DEBUG /D _LIB /D _CRT_SECURE_NO_DEPRECATE /D _CRT_NONSTDC_NO_DEPRECATE /D _ALLOW_RUNTIME_LIBRARY_MISMATCH /D _ALLOW_ITERATOR_DEBUG_LEVEL_MISMATCH /D _ALLOW_MSC_VER_MISMATCH /D _USING_V110_SDK71_ /D _MBCS /D COMPILER_MSVC32 /D COMPILER_MSVC32 /D COMPILER_MSVC /D _DLL_EXT=.dll /D LIBNAME=tier1 /D BINK_VIDEO /D AVI_VIDEO /D WMV_VIDEO /D DEV_BUILD /D FRAME_POINTER_OMISSION_DISABLED /D TIER1_STATIC_LIB /D _EXTERNAL_DLL_EXT=.dll /D VPCGAMECAPS=VALVE /D "PROJECTDIR=C:\Program Files (x86)\Steam\steamapps\sourcemods\hl2_bosnian_translation\src\tier1" /D _DLL_EXT=.dll /D VPCGAME=valve /D SOURCE1=1 /GF /Gm- /EHsc /MTd /GS /arch:SSE /fp:fast /Zc:wchar_t /Zc:forScope /GR /openmp- /Fo".\DEBUG\.\/" /Fd".\DEBUG\.\/VC120.PDB" /Gd /TP /wd4316 /analyze- /FC  /Gw C:\PROGRAM FILES (X86)\STEAM\STEAMAPPS\SOURCEMODS\HL2_BOSNIAN_TRANSLATION\SRC\TIER1\PROCESSOR_DETECT.CPP
