"LightmappedGeneric"
{
	"$basetexture" "Brick/brickwall048d"
	"$surfaceprop" "brick"

	"$detail" "detail\noise_detail_01"
	"$detailscale" "7.740"
	"$detailblendfactor" .8

	"$detailblendmode" 0
	"%keywords" "wasteland"
	"$bumpmap" "Brick/brickwall048d_normal"
	"$parallaxmap" "Brick/brickwall048d_height"
	"$parallaxmapscale" ".005"
}
