^C:\PROGRAM FILES (X86)\STEAM\STEAMAPPS\SOURCEMODS\HL2_BOSNIAN_TRANSLATION\SRC\MATHLIB\3DNOW.CPP
C:\PROGRAM FILES (X86)\STEAM\STEAMAPPS\SOURCEMODS\HL2_BOSNIAN_TRANSLATION\SRC\MATHLIB\DEBUG\VC120.PDB
^C:\PROGRAM FILES (X86)\STEAM\STEAMAPPS\SOURCEMODS\HL2_BOSNIAN_TRANSLATION\SRC\MATHLIB\ALMOSTEQUAL.CPP
C:\PROGRAM FILES (X86)\STEAM\STEAMAPPS\SOURCEMODS\HL2_BOSNIAN_TRANSLATION\SRC\MATHLIB\DEBUG\VC120.PDB
^C:\PROGRAM FILES (X86)\STEAM\STEAMAPPS\SOURCEMODS\HL2_BOSNIAN_TRANSLATION\SRC\MATHLIB\ANORMS.CPP
C:\PROGRAM FILES (X86)\STEAM\STEAMAPPS\SOURCEMODS\HL2_BOSNIAN_TRANSLATION\SRC\MATHLIB\DEBUG\VC120.PDB
^C:\PROGRAM FILES (X86)\STEAM\STEAMAPPS\SOURCEMODS\HL2_BOSNIAN_TRANSLATION\SRC\MATHLIB\BUMPVECTS.CPP
C:\PROGRAM FILES (X86)\STEAM\STEAMAPPS\SOURCEMODS\HL2_BOSNIAN_TRANSLATION\SRC\MATHLIB\DEBUG\VC120.PDB
^C:\PROGRAM FILES (X86)\STEAM\STEAMAPPS\SOURCEMODS\HL2_BOSNIAN_TRANSLATION\SRC\MATHLIB\COLOR_CONVERSION.CPP
C:\PROGRAM FILES (X86)\STEAM\STEAMAPPS\SOURCEMODS\HL2_BOSNIAN_TRANSLATION\SRC\MATHLIB\DEBUG\VC120.PDB
^C:\PROGRAM FILES (X86)\STEAM\STEAMAPPS\SOURCEMODS\HL2_BOSNIAN_TRANSLATION\SRC\MATHLIB\HALTON.CPP
C:\PROGRAM FILES (X86)\STEAM\STEAMAPPS\SOURCEMODS\HL2_BOSNIAN_TRANSLATION\SRC\MATHLIB\DEBUG\VC120.PDB
^C:\PROGRAM FILES (X86)\STEAM\STEAMAPPS\SOURCEMODS\HL2_BOSNIAN_TRANSLATION\SRC\MATHLIB\ICEKEY.CPP
C:\PROGRAM FILES (X86)\STEAM\STEAMAPPS\SOURCEMODS\HL2_BOSNIAN_TRANSLATION\SRC\MATHLIB\DEBUG\VC120.PDB
^C:\PROGRAM FILES (X86)\STEAM\STEAMAPPS\SOURCEMODS\HL2_BOSNIAN_TRANSLATION\SRC\MATHLIB\IMAGEQUANT.CPP
C:\PROGRAM FILES (X86)\STEAM\STEAMAPPS\SOURCEMODS\HL2_BOSNIAN_TRANSLATION\SRC\MATHLIB\DEBUG\VC120.PDB
^C:\PROGRAM FILES (X86)\STEAM\STEAMAPPS\SOURCEMODS\HL2_BOSNIAN_TRANSLATION\SRC\MATHLIB\LIGHTDESC.CPP
C:\PROGRAM FILES (X86)\STEAM\STEAMAPPS\SOURCEMODS\HL2_BOSNIAN_TRANSLATION\SRC\MATHLIB\DEBUG\VC120.PDB
^C:\PROGRAM FILES (X86)\STEAM\STEAMAPPS\SOURCEMODS\HL2_BOSNIAN_TRANSLATION\SRC\MATHLIB\MATHLIB_BASE.CPP
C:\PROGRAM FILES (X86)\STEAM\STEAMAPPS\SOURCEMODS\HL2_BOSNIAN_TRANSLATION\SRC\MATHLIB\DEBUG\VC120.PDB
^C:\PROGRAM FILES (X86)\STEAM\STEAMAPPS\SOURCEMODS\HL2_BOSNIAN_TRANSLATION\SRC\MATHLIB\POLYHEDRON.CPP
C:\PROGRAM FILES (X86)\STEAM\STEAMAPPS\SOURCEMODS\HL2_BOSNIAN_TRANSLATION\SRC\MATHLIB\DEBUG\VC120.PDB
^C:\PROGRAM FILES (X86)\STEAM\STEAMAPPS\SOURCEMODS\HL2_BOSNIAN_TRANSLATION\SRC\MATHLIB\POWSSE.CPP
C:\PROGRAM FILES (X86)\STEAM\STEAMAPPS\SOURCEMODS\HL2_BOSNIAN_TRANSLATION\SRC\MATHLIB\DEBUG\VC120.PDB
^C:\PROGRAM FILES (X86)\STEAM\STEAMAPPS\SOURCEMODS\HL2_BOSNIAN_TRANSLATION\SRC\MATHLIB\QUANTIZE.CPP
C:\PROGRAM FILES (X86)\STEAM\STEAMAPPS\SOURCEMODS\HL2_BOSNIAN_TRANSLATION\SRC\MATHLIB\DEBUG\VC120.PDB
^C:\PROGRAM FILES (X86)\STEAM\STEAMAPPS\SOURCEMODS\HL2_BOSNIAN_TRANSLATION\SRC\MATHLIB\RANDSSE.CPP
C:\PROGRAM FILES (X86)\STEAM\STEAMAPPS\SOURCEMODS\HL2_BOSNIAN_TRANSLATION\SRC\MATHLIB\DEBUG\VC120.PDB
^C:\PROGRAM FILES (X86)\STEAM\STEAMAPPS\SOURCEMODS\HL2_BOSNIAN_TRANSLATION\SRC\MATHLIB\SIMDVECTORMATRIX.CPP
C:\PROGRAM FILES (X86)\STEAM\STEAMAPPS\SOURCEMODS\HL2_BOSNIAN_TRANSLATION\SRC\MATHLIB\DEBUG\VC120.PDB
^C:\PROGRAM FILES (X86)\STEAM\STEAMAPPS\SOURCEMODS\HL2_BOSNIAN_TRANSLATION\SRC\MATHLIB\SPARSE_CONVOLUTION_NOISE.CPP
C:\PROGRAM FILES (X86)\STEAM\STEAMAPPS\SOURCEMODS\HL2_BOSNIAN_TRANSLATION\SRC\MATHLIB\DEBUG\VC120.PDB
^C:\PROGRAM FILES (X86)\STEAM\STEAMAPPS\SOURCEMODS\HL2_BOSNIAN_TRANSLATION\SRC\MATHLIB\SPHERICAL.CPP
C:\PROGRAM FILES (X86)\STEAM\STEAMAPPS\SOURCEMODS\HL2_BOSNIAN_TRANSLATION\SRC\MATHLIB\DEBUG\VC120.PDB
^C:\PROGRAM FILES (X86)\STEAM\STEAMAPPS\SOURCEMODS\HL2_BOSNIAN_TRANSLATION\SRC\MATHLIB\SSE.CPP
C:\PROGRAM FILES (X86)\STEAM\STEAMAPPS\SOURCEMODS\HL2_BOSNIAN_TRANSLATION\SRC\MATHLIB\DEBUG\VC120.PDB
^C:\PROGRAM FILES (X86)\STEAM\STEAMAPPS\SOURCEMODS\HL2_BOSNIAN_TRANSLATION\SRC\MATHLIB\SSECONST.CPP
C:\PROGRAM FILES (X86)\STEAM\STEAMAPPS\SOURCEMODS\HL2_BOSNIAN_TRANSLATION\SRC\MATHLIB\DEBUG\VC120.PDB
^C:\PROGRAM FILES (X86)\STEAM\STEAMAPPS\SOURCEMODS\HL2_BOSNIAN_TRANSLATION\SRC\MATHLIB\SSENOISE.CPP
C:\PROGRAM FILES (X86)\STEAM\STEAMAPPS\SOURCEMODS\HL2_BOSNIAN_TRANSLATION\SRC\MATHLIB\DEBUG\VC120.PDB
^C:\PROGRAM FILES (X86)\STEAM\STEAMAPPS\SOURCEMODS\HL2_BOSNIAN_TRANSLATION\SRC\MATHLIB\VECTOR.CPP
C:\PROGRAM FILES (X86)\STEAM\STEAMAPPS\SOURCEMODS\HL2_BOSNIAN_TRANSLATION\SRC\MATHLIB\DEBUG\VC120.PDB
^C:\PROGRAM FILES (X86)\STEAM\STEAMAPPS\SOURCEMODS\HL2_BOSNIAN_TRANSLATION\SRC\MATHLIB\VMATRIX.CPP
C:\PROGRAM FILES (X86)\STEAM\STEAMAPPS\SOURCEMODS\HL2_BOSNIAN_TRANSLATION\SRC\MATHLIB\DEBUG\VC120.PDB
