^C:\PROGRAM FILES (X86)\STEAM\STEAMAPPS\SOURCEMODS\HL2_BOSNIAN_TRANSLATION\SRC\MATHLIB\DEBUG\3DNOW.OBJ|C:\PROGRAM FILES (X86)\STEAM\STEAMAPPS\SOURCEMODS\HL2_BOSNIAN_TRANSLATION\SRC\MATHLIB\DEBUG\ALMOSTEQUAL.OBJ|C:\PROGRAM FILES (X86)\STEAM\STEAMAPPS\SOURCEMODS\HL2_BOSNIAN_TRANSLATION\SRC\MATHLIB\DEBUG\ANORMS.OBJ|C:\PROGRAM FILES (X86)\STEAM\STEAMAPPS\SOURCEMODS\HL2_BOSNIAN_TRANSLATION\SRC\MATHLIB\DEBUG\BUMPVECTS.OBJ|C:\PROGRAM FILES (X86)\STEAM\STEAMAPPS\SOURCEMODS\HL2_BOSNIAN_TRANSLATION\SRC\MATHLIB\DEBUG\COLOR_CONVERSION.OBJ|C:\PROGRAM FILES (X86)\STEAM\STEAMAPPS\SOURCEMODS\HL2_BOSNIAN_TRANSLATION\SRC\MATHLIB\DEBUG\HALTON.OBJ|C:\PROGRAM FILES (X86)\STEAM\STEAMAPPS\SOURCEMODS\HL2_BOSNIAN_TRANSLATION\SRC\MATHLIB\DEBUG\ICEKEY.OBJ|C:\PROGRAM FILES (X86)\STEAM\STEAMAPPS\SOURCEMODS\HL2_BOSNIAN_TRANSLATION\SRC\MATHLIB\DEBUG\IMAGEQUANT.OBJ|C:\PROGRAM FILES (X86)\STEAM\STEAMAPPS\SOURCEMODS\HL2_BOSNIAN_TRANSLATION\SRC\MATHLIB\DEBUG\LIGHTDESC.OBJ|C:\PROGRAM FILES (X86)\STEAM\STEAMAPPS\SOURCEMODS\HL2_BOSNIAN_TRANSLATION\SRC\MATHLIB\DEBUG\MATHLIB_BASE.OBJ|C:\PROGRAM FILES (X86)\STEAM\STEAMAPPS\SOURCEMODS\HL2_BOSNIAN_TRANSLATION\SRC\MATHLIB\DEBUG\POLYHEDRON.OBJ|C:\PROGRAM FILES (X86)\STEAM\STEAMAPPS\SOURCEMODS\HL2_BOSNIAN_TRANSLATION\SRC\MATHLIB\DEBUG\POWSSE.OBJ|C:\PROGRAM FILES (X86)\STEAM\STEAMAPPS\SOURCEMODS\HL2_BOSNIAN_TRANSLATION\SRC\MATHLIB\DEBUG\QUANTIZE.OBJ|C:\PROGRAM FILES (X86)\STEAM\STEAMAPPS\SOURCEMODS\HL2_BOSNIAN_TRANSLATION\SRC\MATHLIB\DEBUG\RANDSSE.OBJ|C:\PROGRAM FILES (X86)\STEAM\STEAMAPPS\SOURCEMODS\HL2_BOSNIAN_TRANSLATION\SRC\MATHLIB\DEBUG\SIMDVECTORMATRIX.OBJ|C:\PROGRAM FILES (X86)\STEAM\STEAMAPPS\SOURCEMODS\HL2_BOSNIAN_TRANSLATION\SRC\MATHLIB\DEBUG\SPARSE_CONVOLUTION_NOISE.OBJ|C:\PROGRAM FILES (X86)\STEAM\STEAMAPPS\SOURCEMODS\HL2_BOSNIAN_TRANSLATION\SRC\MATHLIB\DEBUG\SPHERICAL.OBJ|C:\PROGRAM FILES (X86)\STEAM\STEAMAPPS\SOURCEMODS\HL2_BOSNIAN_TRANSLATION\SRC\MATHLIB\DEBUG\SSE.OBJ|C:\PROGRAM FILES (X86)\STEAM\STEAMAPPS\SOURCEMODS\HL2_BOSNIAN_TRANSLATION\SRC\MATHLIB\DEBUG\SSECONST.OBJ|C:\PROGRAM FILES (X86)\STEAM\STEAMAPPS\SOURCEMODS\HL2_BOSNIAN_TRANSLATION\SRC\MATHLIB\DEBUG\SSENOISE.OBJ|C:\PROGRAM FILES (X86)\STEAM\STEAMAPPS\SOURCEMODS\HL2_BOSNIAN_TRANSLATION\SRC\MATHLIB\DEBUG\VECTOR.OBJ|C:\PROGRAM FILES (X86)\STEAM\STEAMAPPS\SOURCEMODS\HL2_BOSNIAN_TRANSLATION\SRC\MATHLIB\DEBUG\VMATRIX.OBJ
C:\WINDOWS\SYSTEM32\TZRES.DLL
C:\PROGRAM FILES (X86)\STEAM\STEAMAPPS\SOURCEMODS\HL2_BOSNIAN_TRANSLATION\SRC\MATHLIB\DEBUG\3DNOW.OBJ
C:\PROGRAM FILES (X86)\STEAM\STEAMAPPS\SOURCEMODS\HL2_BOSNIAN_TRANSLATION\SRC\MATHLIB\DEBUG\ALMOSTEQUAL.OBJ
C:\PROGRAM FILES (X86)\STEAM\STEAMAPPS\SOURCEMODS\HL2_BOSNIAN_TRANSLATION\SRC\MATHLIB\DEBUG\ANORMS.OBJ
C:\PROGRAM FILES (X86)\STEAM\STEAMAPPS\SOURCEMODS\HL2_BOSNIAN_TRANSLATION\SRC\MATHLIB\DEBUG\BUMPVECTS.OBJ
C:\PROGRAM FILES (X86)\STEAM\STEAMAPPS\SOURCEMODS\HL2_BOSNIAN_TRANSLATION\SRC\MATHLIB\DEBUG\COLOR_CONVERSION.OBJ
C:\PROGRAM FILES (X86)\STEAM\STEAMAPPS\SOURCEMODS\HL2_BOSNIAN_TRANSLATION\SRC\MATHLIB\DEBUG\HALTON.OBJ
C:\PROGRAM FILES (X86)\STEAM\STEAMAPPS\SOURCEMODS\HL2_BOSNIAN_TRANSLATION\SRC\MATHLIB\DEBUG\ICEKEY.OBJ
C:\PROGRAM FILES (X86)\STEAM\STEAMAPPS\SOURCEMODS\HL2_BOSNIAN_TRANSLATION\SRC\MATHLIB\DEBUG\IMAGEQUANT.OBJ
C:\PROGRAM FILES (X86)\STEAM\STEAMAPPS\SOURCEMODS\HL2_BOSNIAN_TRANSLATION\SRC\MATHLIB\DEBUG\LIGHTDESC.OBJ
C:\PROGRAM FILES (X86)\STEAM\STEAMAPPS\SOURCEMODS\HL2_BOSNIAN_TRANSLATION\SRC\MATHLIB\DEBUG\MATHLIB_BASE.OBJ
C:\PROGRAM FILES (X86)\STEAM\STEAMAPPS\SOURCEMODS\HL2_BOSNIAN_TRANSLATION\SRC\MATHLIB\DEBUG\POLYHEDRON.OBJ
C:\PROGRAM FILES (X86)\STEAM\STEAMAPPS\SOURCEMODS\HL2_BOSNIAN_TRANSLATION\SRC\MATHLIB\DEBUG\POWSSE.OBJ
C:\PROGRAM FILES (X86)\STEAM\STEAMAPPS\SOURCEMODS\HL2_BOSNIAN_TRANSLATION\SRC\MATHLIB\DEBUG\QUANTIZE.OBJ
C:\PROGRAM FILES (X86)\STEAM\STEAMAPPS\SOURCEMODS\HL2_BOSNIAN_TRANSLATION\SRC\MATHLIB\DEBUG\RANDSSE.OBJ
C:\PROGRAM FILES (X86)\STEAM\STEAMAPPS\SOURCEMODS\HL2_BOSNIAN_TRANSLATION\SRC\MATHLIB\DEBUG\SIMDVECTORMATRIX.OBJ
C:\PROGRAM FILES (X86)\STEAM\STEAMAPPS\SOURCEMODS\HL2_BOSNIAN_TRANSLATION\SRC\MATHLIB\DEBUG\SPARSE_CONVOLUTION_NOISE.OBJ
C:\PROGRAM FILES (X86)\STEAM\STEAMAPPS\SOURCEMODS\HL2_BOSNIAN_TRANSLATION\SRC\MATHLIB\DEBUG\SPHERICAL.OBJ
C:\PROGRAM FILES (X86)\STEAM\STEAMAPPS\SOURCEMODS\HL2_BOSNIAN_TRANSLATION\SRC\MATHLIB\DEBUG\SSE.OBJ
C:\PROGRAM FILES (X86)\STEAM\STEAMAPPS\SOURCEMODS\HL2_BOSNIAN_TRANSLATION\SRC\MATHLIB\DEBUG\SSECONST.OBJ
C:\PROGRAM FILES (X86)\STEAM\STEAMAPPS\SOURCEMODS\HL2_BOSNIAN_TRANSLATION\SRC\MATHLIB\DEBUG\SSENOISE.OBJ
C:\PROGRAM FILES (X86)\STEAM\STEAMAPPS\SOURCEMODS\HL2_BOSNIAN_TRANSLATION\SRC\MATHLIB\DEBUG\VECTOR.OBJ
C:\PROGRAM FILES (X86)\STEAM\STEAMAPPS\SOURCEMODS\HL2_BOSNIAN_TRANSLATION\SRC\MATHLIB\DEBUG\VMATRIX.OBJ
C:\WINDOWS\GLOBALIZATION\SORTING\SORTDEFAULT.NLS
