"WorldVertexTransition"
{
	"$basetexture" "nature/dirtfloor004a"
	"$basetexture2" "nature/dirtfloor001a"
	"%tooltexture" "nature/blenddirtdirt001a_tooltexture"
	"%detailtype" "citygrass01"
	"%keywords" "wasteland"
	"$surfaceprop" "dirt"
}
