"LightmappedGeneric"
{
	// Original shader: BaseTimesLightmap
	"$basetexture" "Stone/stonearch003a"
	"$detail" "detail\noise_detail_01"
	"$detailscale" "7.345"
	"$detailblendfactor" .8
	"$detailblendmode" 0	
	"%keywords" "c17downtown,wasteland"
}
