"LightmappedGeneric"
{
	"$basetexture" "Stone/stonewall044c"
	"$surfaceprop" "concrete"
	"%keywords" "c17downtown"
	"$bumpmap" "stone/stonewall044c_normal"

	"$detail" "detail\noise_detail_01"
	"$detailscale" "7.345"
	"$detailblendfactor" .8
	"$detailblendmode" 0
}
