// envmaptint_fix
"LightmappedGeneric"
{
	"$basetexture" "Metal/metalwall021g"
	"$surfaceprop"  "metal"
	"$detail" "detail\metal_detail_01"
	"$detailscale" "4.283"
	"$detailblendfactor" .8
	"$detailblendmode" "0"

	"%keywords" "c17industrial,wasteland"
	"$bumpmap" "Metal/metalwall021g_normal"
	"$envmap" "env_cubemap"
	"$normalmapalphaenvmapmask" 1
	"$envmapcontrast" 1
	"$envmapsaturation" 1
	"$envmaptint" "[ .56 .56 .56 ]"
}
