"LightmappedGeneric"
{
	"$vertexcolor" "1"
	"$vertexalpha" "1"
	// Original shader: DecalBaseTimesLightmapAlphaBlend
	"$translucent" 1
	"$basetexture" "Decals/decalstain011a"
	"$decal" 1
	"$decalscale" 0.25
	"%keywords" "c17downtown,c17sewers,wasteland"
}
