"LightmappedGeneric"
{
	"$vertexcolor" "1"
	"$vertexalpha" "1"
	"$basetexture" "decals\decalstreet008a"
	"$surfaceprop" "concrete"
	"%keywords" "c17downtown"
	"$decal" "1"
	"$translucent" 1
	"$decalscale" 0.25
}
