"LightmappedGeneric"
{
	"$vertexcolor" "1"
	"$vertexalpha" "1"
	// Original shader: DecalBaseTimesLightmapAlphaBlend
	"$translucent" 1
	"$basetexture" "Decals/decalIndustrialnumber01a"
	"$decal" 1
	"$decalscale" 0.5
	"%keywords" "debris"
}
