"LightmappedGeneric"
{
	"$vertexcolor" "1"
	"$vertexalpha" "1"
	// Original shader: DecalBaseTimesLightmapAlphaBlend
	"$translucent" 1
	"$basetexture" "Decals/lambdaspray_1a"
	"$decal" 1
	"$decalscale" 0.10
}
