"VertexLitGeneric"
{
	"$basetexture" "Models/Combine_Helicopter/combine_helicopter02"
	"$surfaceprop" "metal"
	"$translucent" 1
	"$phong" "1"
	"$phongboost" "4"
	"$halflambert" "1"
	"$phongexponent" "20"
	"$phongalbedotint" "1"										
	"$phongfresnelranges"	"[.1 .6 1.0]"
	
	"$envmap" "env_cubemap"
	"$envmaptint" "[ .1 .1 .1 ]"
	"$envmapfresnel" "1"
}