^C:\PROGRAM FILES (X86)\STEAM\STEAMAPPS\SOURCEMODS\HL2_BOSNIAN_TRANSLATION\SRC\PUBLIC\TIER0\POINTEROVERRIDE.ASM
C:\PROGRAM FILES (X86)\STEAM\STEAMAPPS\SOURCEMODS\HL2_BOSNIAN_TRANSLATION\SRC\GAME\SERVER\DEBUG_HL2_TRANSLATION_MOD\POINTEROVERRIDE.OBJ
^C:\PROGRAM FILES (X86)\STEAM\STEAMAPPS\SOURCEMODS\HL2_BOSNIAN_TRANSLATION\SRC\GAME\SERVER\SERVER_EPISODIC.VPC
C:\PROGRAM FILES (X86)\STEAM\STEAMAPPS\SOURCEMODS\HL2_BOSNIAN_TRANSLATION\SRC\GAME\SERVER\SERVER_EPISODIC.VPC.SENTINEL
