
"VertexLitGeneric"
{
	// Original shader: VertexLitTexture
	"$basetexture" "Models/props_vehicles/car001a_02"
	"$surfaceprop" "solidmetal"
	"$envmap" "env_cubemap"
	//"$basealphaenvmapmask" 1
	"$envmapmask" "Models/props_vehicles/car001_envmapmask"

 	"vertexlitgeneric_HDR_dx9"
 	{
  		"$envmaptint" "[.25 .25 .25]"
 	}


	"vertexlitgeneric_DX9"
 	{
  		"$envmaptint" "[.25 .25 .25]"
 	}
}
