^C:\PROGRAM FILES (X86)\STEAM\STEAMAPPS\SOURCEMODS\HL2_BOSNIAN_TRANSLATION\SRC\RAYTRACE\RAYTRACE.CPP
C:\PROGRAM FILES (X86)\STEAM\STEAMAPPS\SOURCEMODS\HL2_BOSNIAN_TRANSLATION\SRC\RAYTRACE\DEBUG\VC120.PDB
^C:\PROGRAM FILES (X86)\STEAM\STEAMAPPS\SOURCEMODS\HL2_BOSNIAN_TRANSLATION\SRC\RAYTRACE\TRACE2.CPP
C:\PROGRAM FILES (X86)\STEAM\STEAMAPPS\SOURCEMODS\HL2_BOSNIAN_TRANSLATION\SRC\RAYTRACE\DEBUG\VC120.PDB
^C:\PROGRAM FILES (X86)\STEAM\STEAMAPPS\SOURCEMODS\HL2_BOSNIAN_TRANSLATION\SRC\RAYTRACE\TRACE3.CPP
C:\PROGRAM FILES (X86)\STEAM\STEAMAPPS\SOURCEMODS\HL2_BOSNIAN_TRANSLATION\SRC\RAYTRACE\DEBUG\VC120.PDB
