"LightmappedGeneric"
{
	"$basetexture" "Building_Template/courtyard_template005h"
	"$surfaceprop"  "concrete"
	"$detail" "detail\plaster_detail_01"
	"$detailscale" "8.583"
	"$detailblendfactor" 1.2
	"$detailblendmode" "0"

}
